solid OpenSCAD_Model
  facet normal 0.671559 0.740951 -0
    outer loop
      vertex 19.4454 19.4454 -1
      vertex 17.4458 21.2578 32
      vertex 19.4454 19.4454 32
    endloop
  endfacet
  facet normal 0.671559 0.740951 0
    outer loop
      vertex 17.4458 21.2578 32
      vertex 19.4454 19.4454 -1
      vertex 17.4458 21.2578 -1
    endloop
  endfacet
  facet normal -0.33689 0.941544 0
    outer loop
      vertex -7.98283 26.3159 -1
      vertex -10.5238 25.4067 32
      vertex -7.98283 26.3159 32
    endloop
  endfacet
  facet normal -0.33689 0.941544 0
    outer loop
      vertex -10.5238 25.4067 32
      vertex -7.98283 26.3159 -1
      vertex -10.5238 25.4067 -1
    endloop
  endfacet
  facet normal -0.903989 0.427555 0
    outer loop
      vertex -25.4067 10.5238 -1
      vertex -24.2528 12.9634 32
      vertex -24.2528 12.9634 -1
    endloop
  endfacet
  facet normal -0.903989 0.427555 0
    outer loop
      vertex -24.2528 12.9634 32
      vertex -25.4067 10.5238 -1
      vertex -25.4067 10.5238 32
    endloop
  endfacet
  facet normal 0.903989 -0.427555 0
    outer loop
      vertex 24.2528 -12.9634 32
      vertex 25.4067 -10.5238 -1
      vertex 25.4067 -10.5238 32
    endloop
  endfacet
  facet normal 0.903989 -0.427555 0
    outer loop
      vertex 25.4067 -10.5238 -1
      vertex 24.2528 -12.9634 32
      vertex 24.2528 -12.9634 -1
    endloop
  endfacet
  facet normal -0.427555 -0.903989 0
    outer loop
      vertex -12.9634 -24.2528 -1
      vertex -10.5238 -25.4067 32
      vertex -12.9634 -24.2528 32
    endloop
  endfacet
  facet normal -0.427555 -0.903989 -0
    outer loop
      vertex -10.5238 -25.4067 32
      vertex -12.9634 -24.2528 -1
      vertex -10.5238 -25.4067 -1
    endloop
  endfacet
  facet normal 0.941544 0.33689 0
    outer loop
      vertex 26.3159 7.98283 32
      vertex 25.4067 10.5238 -1
      vertex 25.4067 10.5238 32
    endloop
  endfacet
  facet normal 0.941544 0.33689 0
    outer loop
      vertex 25.4067 10.5238 -1
      vertex 26.3159 7.98283 32
      vertex 26.3159 7.98283 -1
    endloop
  endfacet
  facet normal 0.989177 0.14673 0
    outer loop
      vertex 27.3676 2.69547 32
      vertex 26.9716 5.36498 -1
      vertex 26.9716 5.36498 32
    endloop
  endfacet
  facet normal 0.989177 0.14673 0
    outer loop
      vertex 26.9716 5.36498 -1
      vertex 27.3676 2.69547 32
      vertex 27.3676 2.69547 -1
    endloop
  endfacet
  facet normal 0.903989 0.427555 0
    outer loop
      vertex 25.4067 10.5238 32
      vertex 24.2528 12.9634 -1
      vertex 24.2528 12.9634 32
    endloop
  endfacet
  facet normal 0.903989 0.427555 0
    outer loop
      vertex 24.2528 12.9634 -1
      vertex 25.4067 10.5238 32
      vertex 25.4067 10.5238 -1
    endloop
  endfacet
  facet normal 0.427555 0.903989 -0
    outer loop
      vertex 12.9634 24.2528 -1
      vertex 10.5238 25.4067 32
      vertex 12.9634 24.2528 32
    endloop
  endfacet
  facet normal 0.427555 0.903989 0
    outer loop
      vertex 10.5238 25.4067 32
      vertex 12.9634 24.2528 -1
      vertex 10.5238 25.4067 -1
    endloop
  endfacet
  facet normal -0.740951 0.671559 0
    outer loop
      vertex -21.2578 17.4458 -1
      vertex -19.4454 19.4454 32
      vertex -19.4454 19.4454 -1
    endloop
  endfacet
  facet normal -0.740951 0.671559 0
    outer loop
      vertex -19.4454 19.4454 32
      vertex -21.2578 17.4458 -1
      vertex -21.2578 17.4458 32
    endloop
  endfacet
  facet normal -0.14673 0.989177 0
    outer loop
      vertex -2.69547 27.3676 -1
      vertex -5.36498 26.9716 32
      vertex -2.69547 27.3676 32
    endloop
  endfacet
  facet normal -0.14673 0.989177 0
    outer loop
      vertex -5.36498 26.9716 32
      vertex -2.69547 27.3676 -1
      vertex -5.36498 26.9716 -1
    endloop
  endfacet
  facet normal 0.989177 -0.14673 0
    outer loop
      vertex 26.9716 -5.36498 32
      vertex 27.3676 -2.69547 -1
      vertex 27.3676 -2.69547 32
    endloop
  endfacet
  facet normal 0.989177 -0.14673 0
    outer loop
      vertex 27.3676 -2.69547 -1
      vertex 26.9716 -5.36498 32
      vertex 26.9716 -5.36498 -1
    endloop
  endfacet
  facet normal 0.740951 -0.671559 0
    outer loop
      vertex 19.4454 -19.4454 32
      vertex 21.2578 -17.4458 -1
      vertex 21.2578 -17.4458 32
    endloop
  endfacet
  facet normal 0.740951 -0.671559 0
    outer loop
      vertex 21.2578 -17.4458 -1
      vertex 19.4454 -19.4454 32
      vertex 19.4454 -19.4454 -1
    endloop
  endfacet
  facet normal -0.14673 -0.989177 0
    outer loop
      vertex -5.36498 -26.9716 -1
      vertex -2.69547 -27.3676 32
      vertex -5.36498 -26.9716 32
    endloop
  endfacet
  facet normal -0.14673 -0.989177 -0
    outer loop
      vertex -2.69547 -27.3676 32
      vertex -5.36498 -26.9716 -1
      vertex -2.69547 -27.3676 -1
    endloop
  endfacet
  facet normal -0.671559 -0.740951 0
    outer loop
      vertex -19.4454 -19.4454 -1
      vertex -17.4458 -21.2578 32
      vertex -19.4454 -19.4454 32
    endloop
  endfacet
  facet normal -0.671559 -0.740951 -0
    outer loop
      vertex -17.4458 -21.2578 32
      vertex -19.4454 -19.4454 -1
      vertex -17.4458 -21.2578 -1
    endloop
  endfacet
  facet normal 0.970031 0.242981 0
    outer loop
      vertex 26.9716 5.36498 32
      vertex 26.3159 7.98283 -1
      vertex 26.3159 7.98283 32
    endloop
  endfacet
  facet normal 0.970031 0.242981 0
    outer loop
      vertex 26.3159 7.98283 -1
      vertex 26.9716 5.36498 32
      vertex 26.9716 5.36498 -1
    endloop
  endfacet
  facet normal 0.803207 0.595699 0
    outer loop
      vertex 22.8654 15.2782 32
      vertex 21.2578 17.4458 -1
      vertex 21.2578 17.4458 32
    endloop
  endfacet
  facet normal 0.803207 0.595699 0
    outer loop
      vertex 21.2578 17.4458 -1
      vertex 22.8654 15.2782 32
      vertex 22.8654 15.2782 -1
    endloop
  endfacet
  facet normal 0.857729 0.514103 0
    outer loop
      vertex 24.2528 12.9634 32
      vertex 22.8654 15.2782 -1
      vertex 22.8654 15.2782 32
    endloop
  endfacet
  facet normal 0.857729 0.514103 0
    outer loop
      vertex 22.8654 15.2782 -1
      vertex 24.2528 12.9634 32
      vertex 24.2528 12.9634 -1
    endloop
  endfacet
  facet normal 0.740951 0.671559 0
    outer loop
      vertex 21.2578 17.4458 32
      vertex 19.4454 19.4454 -1
      vertex 19.4454 19.4454 32
    endloop
  endfacet
  facet normal 0.740951 0.671559 0
    outer loop
      vertex 19.4454 19.4454 -1
      vertex 21.2578 17.4458 32
      vertex 21.2578 17.4458 -1
    endloop
  endfacet
  facet normal 0.595699 0.803207 -0
    outer loop
      vertex 17.4458 21.2578 -1
      vertex 15.2782 22.8654 32
      vertex 17.4458 21.2578 32
    endloop
  endfacet
  facet normal 0.595699 0.803207 0
    outer loop
      vertex 15.2782 22.8654 32
      vertex 17.4458 21.2578 -1
      vertex 15.2782 22.8654 -1
    endloop
  endfacet
  facet normal 0.0490675 0.998795 -0
    outer loop
      vertex 2.69547 27.3676 -1
      vertex 0 27.5 32
      vertex 2.69547 27.3676 32
    endloop
  endfacet
  facet normal 0.0490675 0.998795 0
    outer loop
      vertex 0 27.5 32
      vertex 2.69547 27.3676 -1
      vertex 0 27.5 -1
    endloop
  endfacet
  facet normal 0.514103 0.857729 -0
    outer loop
      vertex 15.2782 22.8654 -1
      vertex 12.9634 24.2528 32
      vertex 15.2782 22.8654 32
    endloop
  endfacet
  facet normal 0.514103 0.857729 0
    outer loop
      vertex 12.9634 24.2528 32
      vertex 15.2782 22.8654 -1
      vertex 12.9634 24.2528 -1
    endloop
  endfacet
  facet normal 0.33689 0.941544 -0
    outer loop
      vertex 10.5238 25.4067 -1
      vertex 7.98283 26.3159 32
      vertex 10.5238 25.4067 32
    endloop
  endfacet
  facet normal 0.33689 0.941544 0
    outer loop
      vertex 7.98283 26.3159 32
      vertex 10.5238 25.4067 -1
      vertex 7.98283 26.3159 -1
    endloop
  endfacet
  facet normal 0.242981 0.970031 -0
    outer loop
      vertex 7.98283 26.3159 -1
      vertex 5.36498 26.9716 32
      vertex 7.98283 26.3159 32
    endloop
  endfacet
  facet normal 0.242981 0.970031 0
    outer loop
      vertex 5.36498 26.9716 32
      vertex 7.98283 26.3159 -1
      vertex 5.36498 26.9716 -1
    endloop
  endfacet
  facet normal -0.998795 0.0490675 0
    outer loop
      vertex -27.5 0 -1
      vertex -27.3676 2.69547 32
      vertex -27.3676 2.69547 -1
    endloop
  endfacet
  facet normal -0.998795 0.0490675 0
    outer loop
      vertex -27.3676 2.69547 32
      vertex -27.5 0 -1
      vertex -27.5 0 32
    endloop
  endfacet
  facet normal -0.941544 0.33689 0
    outer loop
      vertex -26.3159 7.98283 -1
      vertex -25.4067 10.5238 32
      vertex -25.4067 10.5238 -1
    endloop
  endfacet
  facet normal -0.941544 0.33689 0
    outer loop
      vertex -25.4067 10.5238 32
      vertex -26.3159 7.98283 -1
      vertex -26.3159 7.98283 32
    endloop
  endfacet
  facet normal -0.970031 0.242981 0
    outer loop
      vertex -26.9716 5.36498 -1
      vertex -26.3159 7.98283 32
      vertex -26.3159 7.98283 -1
    endloop
  endfacet
  facet normal -0.970031 0.242981 0
    outer loop
      vertex -26.3159 7.98283 32
      vertex -26.9716 5.36498 -1
      vertex -26.9716 5.36498 32
    endloop
  endfacet
  facet normal -0.857729 0.514103 0
    outer loop
      vertex -24.2528 12.9634 -1
      vertex -22.8654 15.2782 32
      vertex -22.8654 15.2782 -1
    endloop
  endfacet
  facet normal -0.857729 0.514103 0
    outer loop
      vertex -22.8654 15.2782 32
      vertex -24.2528 12.9634 -1
      vertex -24.2528 12.9634 32
    endloop
  endfacet
  facet normal -0.803207 0.595699 0
    outer loop
      vertex -22.8654 15.2782 -1
      vertex -21.2578 17.4458 32
      vertex -21.2578 17.4458 -1
    endloop
  endfacet
  facet normal -0.803207 0.595699 0
    outer loop
      vertex -21.2578 17.4458 32
      vertex -22.8654 15.2782 -1
      vertex -22.8654 15.2782 32
    endloop
  endfacet
  facet normal -0.242981 0.970031 0
    outer loop
      vertex -5.36498 26.9716 -1
      vertex -7.98283 26.3159 32
      vertex -5.36498 26.9716 32
    endloop
  endfacet
  facet normal -0.242981 0.970031 0
    outer loop
      vertex -7.98283 26.3159 32
      vertex -5.36498 26.9716 -1
      vertex -7.98283 26.3159 -1
    endloop
  endfacet
  facet normal -0.0490675 0.998795 0
    outer loop
      vertex 0 27.5 -1
      vertex -2.69547 27.3676 32
      vertex 0 27.5 32
    endloop
  endfacet
  facet normal -0.0490675 0.998795 0
    outer loop
      vertex -2.69547 27.3676 32
      vertex 0 27.5 -1
      vertex -2.69547 27.3676 -1
    endloop
  endfacet
  facet normal -0.514103 0.857729 0
    outer loop
      vertex -12.9634 24.2528 -1
      vertex -15.2782 22.8654 32
      vertex -12.9634 24.2528 32
    endloop
  endfacet
  facet normal -0.514103 0.857729 0
    outer loop
      vertex -15.2782 22.8654 32
      vertex -12.9634 24.2528 -1
      vertex -15.2782 22.8654 -1
    endloop
  endfacet
  facet normal -0.595699 0.803207 0
    outer loop
      vertex -15.2782 22.8654 -1
      vertex -17.4458 21.2578 32
      vertex -15.2782 22.8654 32
    endloop
  endfacet
  facet normal -0.595699 0.803207 0
    outer loop
      vertex -17.4458 21.2578 32
      vertex -15.2782 22.8654 -1
      vertex -17.4458 21.2578 -1
    endloop
  endfacet
  facet normal -0.427555 0.903989 0
    outer loop
      vertex -10.5238 25.4067 -1
      vertex -12.9634 24.2528 32
      vertex -10.5238 25.4067 32
    endloop
  endfacet
  facet normal -0.427555 0.903989 0
    outer loop
      vertex -12.9634 24.2528 32
      vertex -10.5238 25.4067 -1
      vertex -12.9634 24.2528 -1
    endloop
  endfacet
  facet normal -0.671559 0.740951 0
    outer loop
      vertex -17.4458 21.2578 -1
      vertex -19.4454 19.4454 32
      vertex -17.4458 21.2578 32
    endloop
  endfacet
  facet normal -0.671559 0.740951 0
    outer loop
      vertex -19.4454 19.4454 32
      vertex -17.4458 21.2578 -1
      vertex -19.4454 19.4454 -1
    endloop
  endfacet
  facet normal 0.998795 0.0490675 0
    outer loop
      vertex 27.5 0 32
      vertex 27.3676 2.69547 -1
      vertex 27.3676 2.69547 32
    endloop
  endfacet
  facet normal 0.998795 0.0490675 0
    outer loop
      vertex 27.3676 2.69547 -1
      vertex 27.5 0 32
      vertex 27.5 0 -1
    endloop
  endfacet
  facet normal 0.0490675 -0.998795 0
    outer loop
      vertex 0 -27.5 -1
      vertex 2.69547 -27.3676 32
      vertex 0 -27.5 32
    endloop
  endfacet
  facet normal 0.0490675 -0.998795 0
    outer loop
      vertex 2.69547 -27.3676 32
      vertex 0 -27.5 -1
      vertex 2.69547 -27.3676 -1
    endloop
  endfacet
  facet normal 0.941544 -0.33689 0
    outer loop
      vertex 25.4067 -10.5238 32
      vertex 26.3159 -7.98283 -1
      vertex 26.3159 -7.98283 32
    endloop
  endfacet
  facet normal 0.941544 -0.33689 0
    outer loop
      vertex 26.3159 -7.98283 -1
      vertex 25.4067 -10.5238 32
      vertex 25.4067 -10.5238 -1
    endloop
  endfacet
  facet normal 0.14673 -0.989177 0
    outer loop
      vertex 2.69547 -27.3676 -1
      vertex 5.36498 -26.9716 32
      vertex 2.69547 -27.3676 32
    endloop
  endfacet
  facet normal 0.14673 -0.989177 0
    outer loop
      vertex 5.36498 -26.9716 32
      vertex 2.69547 -27.3676 -1
      vertex 5.36498 -26.9716 -1
    endloop
  endfacet
  facet normal 0.242981 -0.970031 0
    outer loop
      vertex 5.36498 -26.9716 -1
      vertex 7.98283 -26.3159 32
      vertex 5.36498 -26.9716 32
    endloop
  endfacet
  facet normal 0.242981 -0.970031 0
    outer loop
      vertex 7.98283 -26.3159 32
      vertex 5.36498 -26.9716 -1
      vertex 7.98283 -26.3159 -1
    endloop
  endfacet
  facet normal 0.595699 -0.803207 0
    outer loop
      vertex 15.2782 -22.8654 -1
      vertex 17.4458 -21.2578 32
      vertex 15.2782 -22.8654 32
    endloop
  endfacet
  facet normal 0.595699 -0.803207 0
    outer loop
      vertex 17.4458 -21.2578 32
      vertex 15.2782 -22.8654 -1
      vertex 17.4458 -21.2578 -1
    endloop
  endfacet
  facet normal 0.427555 -0.903989 0
    outer loop
      vertex 10.5238 -25.4067 -1
      vertex 12.9634 -24.2528 32
      vertex 10.5238 -25.4067 32
    endloop
  endfacet
  facet normal 0.427555 -0.903989 0
    outer loop
      vertex 12.9634 -24.2528 32
      vertex 10.5238 -25.4067 -1
      vertex 12.9634 -24.2528 -1
    endloop
  endfacet
  facet normal 0.857729 -0.514103 0
    outer loop
      vertex 22.8654 -15.2782 32
      vertex 24.2528 -12.9634 -1
      vertex 24.2528 -12.9634 32
    endloop
  endfacet
  facet normal 0.857729 -0.514103 0
    outer loop
      vertex 24.2528 -12.9634 -1
      vertex 22.8654 -15.2782 32
      vertex 22.8654 -15.2782 -1
    endloop
  endfacet
  facet normal -0.0490675 -0.998795 0
    outer loop
      vertex -2.69547 -27.3676 -1
      vertex 0 -27.5 32
      vertex -2.69547 -27.3676 32
    endloop
  endfacet
  facet normal -0.0490675 -0.998795 -0
    outer loop
      vertex 0 -27.5 32
      vertex -2.69547 -27.3676 -1
      vertex 0 -27.5 -1
    endloop
  endfacet
  facet normal -0.33689 -0.941544 0
    outer loop
      vertex -10.5238 -25.4067 -1
      vertex -7.98283 -26.3159 32
      vertex -10.5238 -25.4067 32
    endloop
  endfacet
  facet normal -0.33689 -0.941544 -0
    outer loop
      vertex -7.98283 -26.3159 32
      vertex -10.5238 -25.4067 -1
      vertex -7.98283 -26.3159 -1
    endloop
  endfacet
  facet normal -0.514103 -0.857729 0
    outer loop
      vertex -15.2782 -22.8654 -1
      vertex -12.9634 -24.2528 32
      vertex -15.2782 -22.8654 32
    endloop
  endfacet
  facet normal -0.514103 -0.857729 -0
    outer loop
      vertex -12.9634 -24.2528 32
      vertex -15.2782 -22.8654 -1
      vertex -12.9634 -24.2528 -1
    endloop
  endfacet
  facet normal -0.998795 -0.0490675 0
    outer loop
      vertex -27.3676 -2.69547 -1
      vertex -27.5 0 32
      vertex -27.5 0 -1
    endloop
  endfacet
  facet normal -0.998795 -0.0490675 0
    outer loop
      vertex -27.5 0 32
      vertex -27.3676 -2.69547 -1
      vertex -27.3676 -2.69547 32
    endloop
  endfacet
  facet normal -0.970031 -0.242981 0
    outer loop
      vertex -26.3159 -7.98283 -1
      vertex -26.9716 -5.36498 32
      vertex -26.9716 -5.36498 -1
    endloop
  endfacet
  facet normal -0.970031 -0.242981 0
    outer loop
      vertex -26.9716 -5.36498 32
      vertex -26.3159 -7.98283 -1
      vertex -26.3159 -7.98283 32
    endloop
  endfacet
  facet normal -0.989177 -0.14673 0
    outer loop
      vertex -26.9716 -5.36498 -1
      vertex -27.3676 -2.69547 32
      vertex -27.3676 -2.69547 -1
    endloop
  endfacet
  facet normal -0.989177 -0.14673 0
    outer loop
      vertex -27.3676 -2.69547 32
      vertex -26.9716 -5.36498 -1
      vertex -26.9716 -5.36498 32
    endloop
  endfacet
  facet normal -0.803207 -0.595699 0
    outer loop
      vertex -21.2578 -17.4458 -1
      vertex -22.8654 -15.2782 32
      vertex -22.8654 -15.2782 -1
    endloop
  endfacet
  facet normal -0.803207 -0.595699 0
    outer loop
      vertex -22.8654 -15.2782 32
      vertex -21.2578 -17.4458 -1
      vertex -21.2578 -17.4458 32
    endloop
  endfacet
  facet normal -0.903989 -0.427555 0
    outer loop
      vertex -24.2528 -12.9634 -1
      vertex -25.4067 -10.5238 32
      vertex -25.4067 -10.5238 -1
    endloop
  endfacet
  facet normal -0.903989 -0.427555 0
    outer loop
      vertex -25.4067 -10.5238 32
      vertex -24.2528 -12.9634 -1
      vertex -24.2528 -12.9634 32
    endloop
  endfacet
  facet normal -0.740951 -0.671559 0
    outer loop
      vertex -19.4454 -19.4454 -1
      vertex -21.2578 -17.4458 32
      vertex -21.2578 -17.4458 -1
    endloop
  endfacet
  facet normal -0.740951 -0.671559 0
    outer loop
      vertex -21.2578 -17.4458 32
      vertex -19.4454 -19.4454 -1
      vertex -19.4454 -19.4454 32
    endloop
  endfacet
  facet normal 0.14673 0.989177 -0
    outer loop
      vertex 5.36498 26.9716 -1
      vertex 2.69547 27.3676 32
      vertex 5.36498 26.9716 32
    endloop
  endfacet
  facet normal 0.14673 0.989177 0
    outer loop
      vertex 2.69547 27.3676 32
      vertex 5.36498 26.9716 -1
      vertex 2.69547 27.3676 -1
    endloop
  endfacet
  facet normal 0 0 1
    outer loop
      vertex 26.5 0 32
      vertex 27.5 0 32
      vertex 27.3676 2.69547 32
    endloop
  endfacet
  facet normal 0 0 1
    outer loop
      vertex 26.3724 2.59745 32
      vertex 27.3676 2.69547 32
      vertex 26.9716 5.36498 32
    endloop
  endfacet
  facet normal 0 0 1
    outer loop
      vertex 27.5 0 32
      vertex 26.5 0 32
      vertex 27.3676 -2.69547 32
    endloop
  endfacet
  facet normal -0 0 1
    outer loop
      vertex 26.3724 -2.59745 32
      vertex 27.3676 -2.69547 32
      vertex 26.5 0 32
    endloop
  endfacet
  facet normal 0 0 1
    outer loop
      vertex 27.3676 2.69547 32
      vertex 26.3724 2.59745 32
      vertex 26.5 0 32
    endloop
  endfacet
  facet normal 0 0 1
    outer loop
      vertex 25.9908 5.16989 32
      vertex 26.9716 5.36498 32
      vertex 26.3159 7.98283 32
    endloop
  endfacet
  facet normal 0 0 1
    outer loop
      vertex 26.9716 5.36498 32
      vertex 25.9908 5.16989 32
      vertex 26.3724 2.59745 32
    endloop
  endfacet
  facet normal 0 0 1
    outer loop
      vertex 25.3589 7.69254 32
      vertex 26.3159 7.98283 32
      vertex 25.4067 10.5238 32
    endloop
  endfacet
  facet normal 0 0 1
    outer loop
      vertex 26.3159 7.98283 32
      vertex 25.3589 7.69254 32
      vertex 25.9908 5.16989 32
    endloop
  endfacet
  facet normal 0 0 1
    outer loop
      vertex 25.4067 10.5238 32
      vertex 24.4828 10.1411 32
      vertex 25.3589 7.69254 32
    endloop
  endfacet
  facet normal 0 0 1
    outer loop
      vertex 24.2528 12.9634 32
      vertex 24.4828 10.1411 32
      vertex 25.4067 10.5238 32
    endloop
  endfacet
  facet normal 0 0 1
    outer loop
      vertex 24.2528 12.9634 32
      vertex 23.3709 12.492 32
      vertex 24.4828 10.1411 32
    endloop
  endfacet
  facet normal 0 0 1
    outer loop
      vertex 22.8654 15.2782 32
      vertex 23.3709 12.492 32
      vertex 24.2528 12.9634 32
    endloop
  endfacet
  facet normal 0 0 1
    outer loop
      vertex 22.8654 15.2782 32
      vertex 22.0339 14.7226 32
      vertex 23.3709 12.492 32
    endloop
  endfacet
  facet normal 0 0 1
    outer loop
      vertex 21.2578 17.4458 32
      vertex 22.0339 14.7226 32
      vertex 22.8654 15.2782 32
    endloop
  endfacet
  facet normal 0 0 1
    outer loop
      vertex 21.2578 17.4458 32
      vertex 20.4848 16.8114 32
      vertex 22.0339 14.7226 32
    endloop
  endfacet
  facet normal 0 0 1
    outer loop
      vertex 19.4454 19.4454 32
      vertex 20.4848 16.8114 32
      vertex 21.2578 17.4458 32
    endloop
  endfacet
  facet normal 0 0 1
    outer loop
      vertex 19.4454 19.4454 32
      vertex 18.7383 18.7383 32
      vertex 20.4848 16.8114 32
    endloop
  endfacet
  facet normal 0 0 1
    outer loop
      vertex 17.4458 21.2578 32
      vertex 18.7383 18.7383 32
      vertex 19.4454 19.4454 32
    endloop
  endfacet
  facet normal 0 0 1
    outer loop
      vertex 17.4458 21.2578 32
      vertex 16.8114 20.4848 32
      vertex 18.7383 18.7383 32
    endloop
  endfacet
  facet normal 0 0 1
    outer loop
      vertex 15.2782 22.8654 32
      vertex 16.8114 20.4848 32
      vertex 17.4458 21.2578 32
    endloop
  endfacet
  facet normal 0 0 1
    outer loop
      vertex 15.2782 22.8654 32
      vertex 14.7226 22.0339 32
      vertex 16.8114 20.4848 32
    endloop
  endfacet
  facet normal 0 0 1
    outer loop
      vertex 12.9634 24.2528 32
      vertex 14.7226 22.0339 32
      vertex 15.2782 22.8654 32
    endloop
  endfacet
  facet normal 0 0 1
    outer loop
      vertex 12.9634 24.2528 32
      vertex 12.492 23.3709 32
      vertex 14.7226 22.0339 32
    endloop
  endfacet
  facet normal 0 0 1
    outer loop
      vertex 10.5238 25.4067 32
      vertex 12.492 23.3709 32
      vertex 12.9634 24.2528 32
    endloop
  endfacet
  facet normal 0 0 1
    outer loop
      vertex 10.5238 25.4067 32
      vertex 10.1411 24.4828 32
      vertex 12.492 23.3709 32
    endloop
  endfacet
  facet normal 0 0 1
    outer loop
      vertex 7.98283 26.3159 32
      vertex 10.1411 24.4828 32
      vertex 10.5238 25.4067 32
    endloop
  endfacet
  facet normal 0 0 1
    outer loop
      vertex 7.98283 26.3159 32
      vertex 7.69254 25.3589 32
      vertex 10.1411 24.4828 32
    endloop
  endfacet
  facet normal 0 0 1
    outer loop
      vertex 5.36498 26.9716 32
      vertex 7.69254 25.3589 32
      vertex 7.98283 26.3159 32
    endloop
  endfacet
  facet normal 0 0 1
    outer loop
      vertex 5.36498 26.9716 32
      vertex 5.16989 25.9908 32
      vertex 7.69254 25.3589 32
    endloop
  endfacet
  facet normal 0 0 1
    outer loop
      vertex 2.69547 27.3676 32
      vertex 5.16989 25.9908 32
      vertex 5.36498 26.9716 32
    endloop
  endfacet
  facet normal 0 0 1
    outer loop
      vertex 2.69547 27.3676 32
      vertex 2.59745 26.3724 32
      vertex 5.16989 25.9908 32
    endloop
  endfacet
  facet normal 0 0 1
    outer loop
      vertex 0 27.5 32
      vertex 2.59745 26.3724 32
      vertex 2.69547 27.3676 32
    endloop
  endfacet
  facet normal 0 0 1
    outer loop
      vertex 0 27.5 32
      vertex 0 26.5 32
      vertex 2.59745 26.3724 32
    endloop
  endfacet
  facet normal 0 0 1
    outer loop
      vertex 0 27.5 32
      vertex -2.59745 26.3724 32
      vertex 0 26.5 32
    endloop
  endfacet
  facet normal -0 0 1
    outer loop
      vertex -2.69547 27.3676 32
      vertex -2.59745 26.3724 32
      vertex 0 27.5 32
    endloop
  endfacet
  facet normal 0 0 1
    outer loop
      vertex -2.69547 27.3676 32
      vertex -5.16989 25.9908 32
      vertex -2.59745 26.3724 32
    endloop
  endfacet
  facet normal -0 0 1
    outer loop
      vertex -5.36498 26.9716 32
      vertex -5.16989 25.9908 32
      vertex -2.69547 27.3676 32
    endloop
  endfacet
  facet normal 0 0 1
    outer loop
      vertex -5.36498 26.9716 32
      vertex -7.69254 25.3589 32
      vertex -5.16989 25.9908 32
    endloop
  endfacet
  facet normal -0 0 1
    outer loop
      vertex -7.98283 26.3159 32
      vertex -7.69254 25.3589 32
      vertex -5.36498 26.9716 32
    endloop
  endfacet
  facet normal 0 0 1
    outer loop
      vertex -7.98283 26.3159 32
      vertex -10.1411 24.4828 32
      vertex -7.69254 25.3589 32
    endloop
  endfacet
  facet normal -0 0 1
    outer loop
      vertex -10.5238 25.4067 32
      vertex -10.1411 24.4828 32
      vertex -7.98283 26.3159 32
    endloop
  endfacet
  facet normal 0 0 1
    outer loop
      vertex -10.5238 25.4067 32
      vertex -12.492 23.3709 32
      vertex -10.1411 24.4828 32
    endloop
  endfacet
  facet normal -0 0 1
    outer loop
      vertex -12.9634 24.2528 32
      vertex -12.492 23.3709 32
      vertex -10.5238 25.4067 32
    endloop
  endfacet
  facet normal 0 0 1
    outer loop
      vertex -12.9634 24.2528 32
      vertex -14.7226 22.0339 32
      vertex -12.492 23.3709 32
    endloop
  endfacet
  facet normal -0 0 1
    outer loop
      vertex -15.2782 22.8654 32
      vertex -14.7226 22.0339 32
      vertex -12.9634 24.2528 32
    endloop
  endfacet
  facet normal 0 0 1
    outer loop
      vertex -15.2782 22.8654 32
      vertex -16.8114 20.4848 32
      vertex -14.7226 22.0339 32
    endloop
  endfacet
  facet normal -0 0 1
    outer loop
      vertex -17.4458 21.2578 32
      vertex -16.8114 20.4848 32
      vertex -15.2782 22.8654 32
    endloop
  endfacet
  facet normal 0 0 1
    outer loop
      vertex -17.4458 21.2578 32
      vertex -18.7383 18.7383 32
      vertex -16.8114 20.4848 32
    endloop
  endfacet
  facet normal -0 0 1
    outer loop
      vertex -19.4454 19.4454 32
      vertex -18.7383 18.7383 32
      vertex -17.4458 21.2578 32
    endloop
  endfacet
  facet normal 0 0 1
    outer loop
      vertex -19.4454 19.4454 32
      vertex -20.4848 16.8114 32
      vertex -18.7383 18.7383 32
    endloop
  endfacet
  facet normal -0 0 1
    outer loop
      vertex -21.2578 17.4458 32
      vertex -20.4848 16.8114 32
      vertex -19.4454 19.4454 32
    endloop
  endfacet
  facet normal 0 0 1
    outer loop
      vertex -21.2578 17.4458 32
      vertex -22.0339 14.7226 32
      vertex -20.4848 16.8114 32
    endloop
  endfacet
  facet normal -0 0 1
    outer loop
      vertex -22.8654 15.2782 32
      vertex -22.0339 14.7226 32
      vertex -21.2578 17.4458 32
    endloop
  endfacet
  facet normal 0 0 1
    outer loop
      vertex -22.8654 15.2782 32
      vertex -23.3709 12.492 32
      vertex -22.0339 14.7226 32
    endloop
  endfacet
  facet normal -0 0 1
    outer loop
      vertex -24.2528 12.9634 32
      vertex -23.3709 12.492 32
      vertex -22.8654 15.2782 32
    endloop
  endfacet
  facet normal 0 0 1
    outer loop
      vertex -24.2528 12.9634 32
      vertex -24.4828 10.1411 32
      vertex -23.3709 12.492 32
    endloop
  endfacet
  facet normal -0 0 1
    outer loop
      vertex -25.4067 10.5238 32
      vertex -24.4828 10.1411 32
      vertex -24.2528 12.9634 32
    endloop
  endfacet
  facet normal 0 0 1
    outer loop
      vertex -24.4828 10.1411 32
      vertex -25.4067 10.5238 32
      vertex -25.3589 7.69254 32
    endloop
  endfacet
  facet normal -0 0 1
    outer loop
      vertex -26.3159 7.98283 32
      vertex -25.3589 7.69254 32
      vertex -25.4067 10.5238 32
    endloop
  endfacet
  facet normal 0 0 1
    outer loop
      vertex -25.3589 7.69254 32
      vertex -26.3159 7.98283 32
      vertex -25.9908 5.16989 32
    endloop
  endfacet
  facet normal -0 0 1
    outer loop
      vertex -26.9716 5.36498 32
      vertex -25.9908 5.16989 32
      vertex -26.3159 7.98283 32
    endloop
  endfacet
  facet normal 0 0 1
    outer loop
      vertex -25.9908 5.16989 32
      vertex -26.9716 5.36498 32
      vertex -26.3724 2.59745 32
    endloop
  endfacet
  facet normal -0 0 1
    outer loop
      vertex -27.3676 2.69547 32
      vertex -26.3724 2.59745 32
      vertex -26.9716 5.36498 32
    endloop
  endfacet
  facet normal 0 0 1
    outer loop
      vertex 27.3676 -2.69547 32
      vertex 26.3724 -2.59745 32
      vertex 26.9716 -5.36498 32
    endloop
  endfacet
  facet normal -0 0 1
    outer loop
      vertex 25.9908 -5.16989 32
      vertex 26.9716 -5.36498 32
      vertex 26.3724 -2.59745 32
    endloop
  endfacet
  facet normal 0 0 1
    outer loop
      vertex 26.9716 -5.36498 32
      vertex 25.9908 -5.16989 32
      vertex 26.3159 -7.98283 32
    endloop
  endfacet
  facet normal -0 0 1
    outer loop
      vertex 25.3589 -7.69254 32
      vertex 26.3159 -7.98283 32
      vertex 25.9908 -5.16989 32
    endloop
  endfacet
  facet normal 0 0 1
    outer loop
      vertex 26.3159 -7.98283 32
      vertex 25.3589 -7.69254 32
      vertex 25.4067 -10.5238 32
    endloop
  endfacet
  facet normal -0 0 1
    outer loop
      vertex 24.4828 -10.1411 32
      vertex 25.4067 -10.5238 32
      vertex 25.3589 -7.69254 32
    endloop
  endfacet
  facet normal 0 0 1
    outer loop
      vertex 24.4828 -10.1411 32
      vertex 24.2528 -12.9634 32
      vertex 25.4067 -10.5238 32
    endloop
  endfacet
  facet normal -0 0 1
    outer loop
      vertex 23.3709 -12.492 32
      vertex 24.2528 -12.9634 32
      vertex 24.4828 -10.1411 32
    endloop
  endfacet
  facet normal 0 0 1
    outer loop
      vertex 23.3709 -12.492 32
      vertex 22.8654 -15.2782 32
      vertex 24.2528 -12.9634 32
    endloop
  endfacet
  facet normal -0 0 1
    outer loop
      vertex 22.0339 -14.7226 32
      vertex 22.8654 -15.2782 32
      vertex 23.3709 -12.492 32
    endloop
  endfacet
  facet normal 0 0 1
    outer loop
      vertex 22.0339 -14.7226 32
      vertex 21.2578 -17.4458 32
      vertex 22.8654 -15.2782 32
    endloop
  endfacet
  facet normal -0 0 1
    outer loop
      vertex 20.4848 -16.8114 32
      vertex 21.2578 -17.4458 32
      vertex 22.0339 -14.7226 32
    endloop
  endfacet
  facet normal 0 0 1
    outer loop
      vertex 20.4848 -16.8114 32
      vertex 19.4454 -19.4454 32
      vertex 21.2578 -17.4458 32
    endloop
  endfacet
  facet normal -0 0 1
    outer loop
      vertex 18.7383 -18.7383 32
      vertex 19.4454 -19.4454 32
      vertex 20.4848 -16.8114 32
    endloop
  endfacet
  facet normal 0 0 1
    outer loop
      vertex 18.7383 -18.7383 32
      vertex 17.4458 -21.2578 32
      vertex 19.4454 -19.4454 32
    endloop
  endfacet
  facet normal -0 0 1
    outer loop
      vertex 16.8114 -20.4848 32
      vertex 17.4458 -21.2578 32
      vertex 18.7383 -18.7383 32
    endloop
  endfacet
  facet normal 0 0 1
    outer loop
      vertex 16.8114 -20.4848 32
      vertex 15.2782 -22.8654 32
      vertex 17.4458 -21.2578 32
    endloop
  endfacet
  facet normal -0 0 1
    outer loop
      vertex 14.7226 -22.0339 32
      vertex 15.2782 -22.8654 32
      vertex 16.8114 -20.4848 32
    endloop
  endfacet
  facet normal 0 0 1
    outer loop
      vertex 14.7226 -22.0339 32
      vertex 12.9634 -24.2528 32
      vertex 15.2782 -22.8654 32
    endloop
  endfacet
  facet normal -0 0 1
    outer loop
      vertex 12.492 -23.3709 32
      vertex 12.9634 -24.2528 32
      vertex 14.7226 -22.0339 32
    endloop
  endfacet
  facet normal 0 0 1
    outer loop
      vertex 12.492 -23.3709 32
      vertex 10.5238 -25.4067 32
      vertex 12.9634 -24.2528 32
    endloop
  endfacet
  facet normal -0 0 1
    outer loop
      vertex 10.1411 -24.4828 32
      vertex 10.5238 -25.4067 32
      vertex 12.492 -23.3709 32
    endloop
  endfacet
  facet normal 0 0 1
    outer loop
      vertex 10.1411 -24.4828 32
      vertex 7.98283 -26.3159 32
      vertex 10.5238 -25.4067 32
    endloop
  endfacet
  facet normal -0 0 1
    outer loop
      vertex 7.69254 -25.3589 32
      vertex 7.98283 -26.3159 32
      vertex 10.1411 -24.4828 32
    endloop
  endfacet
  facet normal 0 0 1
    outer loop
      vertex 7.69254 -25.3589 32
      vertex 5.36498 -26.9716 32
      vertex 7.98283 -26.3159 32
    endloop
  endfacet
  facet normal -0 0 1
    outer loop
      vertex 5.16989 -25.9908 32
      vertex 5.36498 -26.9716 32
      vertex 7.69254 -25.3589 32
    endloop
  endfacet
  facet normal 0 0 1
    outer loop
      vertex 5.16989 -25.9908 32
      vertex 2.69547 -27.3676 32
      vertex 5.36498 -26.9716 32
    endloop
  endfacet
  facet normal -0 0 1
    outer loop
      vertex 2.59745 -26.3724 32
      vertex 2.69547 -27.3676 32
      vertex 5.16989 -25.9908 32
    endloop
  endfacet
  facet normal -0 0 1
    outer loop
      vertex 0 -26.5 32
      vertex 2.69547 -27.3676 32
      vertex 2.59745 -26.3724 32
    endloop
  endfacet
  facet normal 0 0 1
    outer loop
      vertex 0 -26.5 32
      vertex 0 -27.5 32
      vertex 2.69547 -27.3676 32
    endloop
  endfacet
  facet normal 0 0 1
    outer loop
      vertex -2.59745 -26.3724 32
      vertex 0 -27.5 32
      vertex 0 -26.5 32
    endloop
  endfacet
  facet normal 0 0 1
    outer loop
      vertex -2.59745 -26.3724 32
      vertex -2.69547 -27.3676 32
      vertex 0 -27.5 32
    endloop
  endfacet
  facet normal 0 0 1
    outer loop
      vertex -5.16989 -25.9908 32
      vertex -2.69547 -27.3676 32
      vertex -2.59745 -26.3724 32
    endloop
  endfacet
  facet normal 0 0 1
    outer loop
      vertex -5.16989 -25.9908 32
      vertex -5.36498 -26.9716 32
      vertex -2.69547 -27.3676 32
    endloop
  endfacet
  facet normal 0 0 1
    outer loop
      vertex -7.69254 -25.3589 32
      vertex -5.36498 -26.9716 32
      vertex -5.16989 -25.9908 32
    endloop
  endfacet
  facet normal 0 0 1
    outer loop
      vertex -7.69254 -25.3589 32
      vertex -7.98283 -26.3159 32
      vertex -5.36498 -26.9716 32
    endloop
  endfacet
  facet normal 0 0 1
    outer loop
      vertex -10.1411 -24.4828 32
      vertex -7.98283 -26.3159 32
      vertex -7.69254 -25.3589 32
    endloop
  endfacet
  facet normal 0 0 1
    outer loop
      vertex -10.1411 -24.4828 32
      vertex -10.5238 -25.4067 32
      vertex -7.98283 -26.3159 32
    endloop
  endfacet
  facet normal 0 0 1
    outer loop
      vertex -12.492 -23.3709 32
      vertex -10.5238 -25.4067 32
      vertex -10.1411 -24.4828 32
    endloop
  endfacet
  facet normal 0 0 1
    outer loop
      vertex -12.492 -23.3709 32
      vertex -12.9634 -24.2528 32
      vertex -10.5238 -25.4067 32
    endloop
  endfacet
  facet normal 0 0 1
    outer loop
      vertex -14.7226 -22.0339 32
      vertex -12.9634 -24.2528 32
      vertex -12.492 -23.3709 32
    endloop
  endfacet
  facet normal 0 0 1
    outer loop
      vertex -14.7226 -22.0339 32
      vertex -15.2782 -22.8654 32
      vertex -12.9634 -24.2528 32
    endloop
  endfacet
  facet normal 0 0 1
    outer loop
      vertex -16.8114 -20.4848 32
      vertex -15.2782 -22.8654 32
      vertex -14.7226 -22.0339 32
    endloop
  endfacet
  facet normal 0 0 1
    outer loop
      vertex -16.8114 -20.4848 32
      vertex -17.4458 -21.2578 32
      vertex -15.2782 -22.8654 32
    endloop
  endfacet
  facet normal 0 0 1
    outer loop
      vertex -18.7383 -18.7383 32
      vertex -17.4458 -21.2578 32
      vertex -16.8114 -20.4848 32
    endloop
  endfacet
  facet normal 0 0 1
    outer loop
      vertex -18.7383 -18.7383 32
      vertex -19.4454 -19.4454 32
      vertex -17.4458 -21.2578 32
    endloop
  endfacet
  facet normal 0 0 1
    outer loop
      vertex -20.4848 -16.8114 32
      vertex -19.4454 -19.4454 32
      vertex -18.7383 -18.7383 32
    endloop
  endfacet
  facet normal 0 0 1
    outer loop
      vertex -20.4848 -16.8114 32
      vertex -21.2578 -17.4458 32
      vertex -19.4454 -19.4454 32
    endloop
  endfacet
  facet normal 0 0 1
    outer loop
      vertex -22.0339 -14.7226 32
      vertex -21.2578 -17.4458 32
      vertex -20.4848 -16.8114 32
    endloop
  endfacet
  facet normal 0 0 1
    outer loop
      vertex -22.0339 -14.7226 32
      vertex -22.8654 -15.2782 32
      vertex -21.2578 -17.4458 32
    endloop
  endfacet
  facet normal 0 0 1
    outer loop
      vertex -23.3709 -12.492 32
      vertex -22.8654 -15.2782 32
      vertex -22.0339 -14.7226 32
    endloop
  endfacet
  facet normal 0 0 1
    outer loop
      vertex -23.3709 -12.492 32
      vertex -24.2528 -12.9634 32
      vertex -22.8654 -15.2782 32
    endloop
  endfacet
  facet normal 0 0 1
    outer loop
      vertex -24.4828 -10.1411 32
      vertex -24.2528 -12.9634 32
      vertex -23.3709 -12.492 32
    endloop
  endfacet
  facet normal 0 0 1
    outer loop
      vertex -25.4067 -10.5238 32
      vertex -24.4828 -10.1411 32
      vertex -25.3589 -7.69254 32
    endloop
  endfacet
  facet normal 0 0 1
    outer loop
      vertex -24.4828 -10.1411 32
      vertex -25.4067 -10.5238 32
      vertex -24.2528 -12.9634 32
    endloop
  endfacet
  facet normal 0 0 1
    outer loop
      vertex -26.3159 -7.98283 32
      vertex -25.3589 -7.69254 32
      vertex -25.9908 -5.16989 32
    endloop
  endfacet
  facet normal 0 0 1
    outer loop
      vertex -25.3589 -7.69254 32
      vertex -26.3159 -7.98283 32
      vertex -25.4067 -10.5238 32
    endloop
  endfacet
  facet normal 0 0 1
    outer loop
      vertex -26.9716 -5.36498 32
      vertex -25.9908 -5.16989 32
      vertex -26.3724 -2.59745 32
    endloop
  endfacet
  facet normal 0 0 1
    outer loop
      vertex -27.3676 -2.69547 32
      vertex -26.3724 -2.59745 32
      vertex -26.5 0 32
    endloop
  endfacet
  facet normal 0 0 1
    outer loop
      vertex -26.3724 2.59745 32
      vertex -27.3676 2.69547 32
      vertex -26.5 0 32
    endloop
  endfacet
  facet normal 0 0 1
    outer loop
      vertex -25.9908 -5.16989 32
      vertex -26.9716 -5.36498 32
      vertex -26.3159 -7.98283 32
    endloop
  endfacet
  facet normal 0 0 1
    outer loop
      vertex -27.5 0 32
      vertex -26.5 0 32
      vertex -27.3676 2.69547 32
    endloop
  endfacet
  facet normal 0 0 1
    outer loop
      vertex -26.3724 -2.59745 32
      vertex -27.3676 -2.69547 32
      vertex -26.9716 -5.36498 32
    endloop
  endfacet
  facet normal 0 0 1
    outer loop
      vertex -26.5 0 32
      vertex -27.5 0 32
      vertex -27.3676 -2.69547 32
    endloop
  endfacet
  facet normal -0.989177 0.14673 0
    outer loop
      vertex -27.3676 2.69547 -1
      vertex -26.9716 5.36498 32
      vertex -26.9716 5.36498 -1
    endloop
  endfacet
  facet normal -0.989177 0.14673 0
    outer loop
      vertex -26.9716 5.36498 32
      vertex -27.3676 2.69547 -1
      vertex -27.3676 2.69547 32
    endloop
  endfacet
  facet normal 0.998795 -0.0490675 0
    outer loop
      vertex 27.3676 -2.69547 32
      vertex 27.5 0 -1
      vertex 27.5 0 32
    endloop
  endfacet
  facet normal 0.998795 -0.0490675 0
    outer loop
      vertex 27.5 0 -1
      vertex 27.3676 -2.69547 32
      vertex 27.3676 -2.69547 -1
    endloop
  endfacet
  facet normal 0.970031 -0.242981 0
    outer loop
      vertex 26.3159 -7.98283 32
      vertex 26.9716 -5.36498 -1
      vertex 26.9716 -5.36498 32
    endloop
  endfacet
  facet normal 0.970031 -0.242981 0
    outer loop
      vertex 26.9716 -5.36498 -1
      vertex 26.3159 -7.98283 32
      vertex 26.3159 -7.98283 -1
    endloop
  endfacet
  facet normal 0.33689 -0.941544 0
    outer loop
      vertex 7.98283 -26.3159 -1
      vertex 10.5238 -25.4067 32
      vertex 7.98283 -26.3159 32
    endloop
  endfacet
  facet normal 0.33689 -0.941544 0
    outer loop
      vertex 10.5238 -25.4067 32
      vertex 7.98283 -26.3159 -1
      vertex 10.5238 -25.4067 -1
    endloop
  endfacet
  facet normal 0.671559 -0.740951 0
    outer loop
      vertex 17.4458 -21.2578 -1
      vertex 19.4454 -19.4454 32
      vertex 17.4458 -21.2578 32
    endloop
  endfacet
  facet normal 0.671559 -0.740951 0
    outer loop
      vertex 19.4454 -19.4454 32
      vertex 17.4458 -21.2578 -1
      vertex 19.4454 -19.4454 -1
    endloop
  endfacet
  facet normal 0.514103 -0.857729 0
    outer loop
      vertex 12.9634 -24.2528 -1
      vertex 15.2782 -22.8654 32
      vertex 12.9634 -24.2528 32
    endloop
  endfacet
  facet normal 0.514103 -0.857729 0
    outer loop
      vertex 15.2782 -22.8654 32
      vertex 12.9634 -24.2528 -1
      vertex 15.2782 -22.8654 -1
    endloop
  endfacet
  facet normal 0.803207 -0.595699 0
    outer loop
      vertex 21.2578 -17.4458 32
      vertex 22.8654 -15.2782 -1
      vertex 22.8654 -15.2782 32
    endloop
  endfacet
  facet normal 0.803207 -0.595699 0
    outer loop
      vertex 22.8654 -15.2782 -1
      vertex 21.2578 -17.4458 32
      vertex 21.2578 -17.4458 -1
    endloop
  endfacet
  facet normal -0.242981 -0.970031 0
    outer loop
      vertex -7.98283 -26.3159 -1
      vertex -5.36498 -26.9716 32
      vertex -7.98283 -26.3159 32
    endloop
  endfacet
  facet normal -0.242981 -0.970031 -0
    outer loop
      vertex -5.36498 -26.9716 32
      vertex -7.98283 -26.3159 -1
      vertex -5.36498 -26.9716 -1
    endloop
  endfacet
  facet normal -0.595699 -0.803207 0
    outer loop
      vertex -17.4458 -21.2578 -1
      vertex -15.2782 -22.8654 32
      vertex -17.4458 -21.2578 32
    endloop
  endfacet
  facet normal -0.595699 -0.803207 -0
    outer loop
      vertex -15.2782 -22.8654 32
      vertex -17.4458 -21.2578 -1
      vertex -15.2782 -22.8654 -1
    endloop
  endfacet
  facet normal -0.941544 -0.33689 0
    outer loop
      vertex -25.4067 -10.5238 -1
      vertex -26.3159 -7.98283 32
      vertex -26.3159 -7.98283 -1
    endloop
  endfacet
  facet normal -0.941544 -0.33689 0
    outer loop
      vertex -26.3159 -7.98283 32
      vertex -25.4067 -10.5238 -1
      vertex -25.4067 -10.5238 32
    endloop
  endfacet
  facet normal -0.857729 -0.514103 0
    outer loop
      vertex -22.8654 -15.2782 -1
      vertex -24.2528 -12.9634 32
      vertex -24.2528 -12.9634 -1
    endloop
  endfacet
  facet normal -0.857729 -0.514103 0
    outer loop
      vertex -24.2528 -12.9634 32
      vertex -22.8654 -15.2782 -1
      vertex -22.8654 -15.2782 32
    endloop
  endfacet
  facet normal -0.595699 -0.803207 0
    outer loop
      vertex 14.7226 22.0339 1
      vertex 16.8114 20.4848 32
      vertex 14.7226 22.0339 32
    endloop
  endfacet
  facet normal -0.595699 -0.803207 -0
    outer loop
      vertex 16.8114 20.4848 32
      vertex 14.7226 22.0339 1
      vertex 16.8114 20.4848 1
    endloop
  endfacet
  facet normal -0.998795 0.0490679 0
    outer loop
      vertex 26.3724 -2.59745 1
      vertex 26.5 0 32
      vertex 26.5 0 1
    endloop
  endfacet
  facet normal -0.998795 0.0490679 0
    outer loop
      vertex 26.5 0 32
      vertex 26.3724 -2.59745 1
      vertex 26.3724 -2.59745 32
    endloop
  endfacet
  facet normal 0.336889 -0.941544 0
    outer loop
      vertex -10.1411 24.4828 1
      vertex -7.69254 25.3589 32
      vertex -10.1411 24.4828 32
    endloop
  endfacet
  facet normal 0.336889 -0.941544 0
    outer loop
      vertex -7.69254 25.3589 32
      vertex -10.1411 24.4828 1
      vertex -7.69254 25.3589 1
    endloop
  endfacet
  facet normal 0.903989 -0.427555 0
    outer loop
      vertex -24.4828 10.1411 32
      vertex -23.3709 12.492 1
      vertex -23.3709 12.492 32
    endloop
  endfacet
  facet normal 0.903989 -0.427555 0
    outer loop
      vertex -23.3709 12.492 1
      vertex -24.4828 10.1411 32
      vertex -24.4828 10.1411 1
    endloop
  endfacet
  facet normal 0.427555 0.903989 -0
    outer loop
      vertex -10.1411 -24.4828 1
      vertex -12.492 -23.3709 32
      vertex -10.1411 -24.4828 32
    endloop
  endfacet
  facet normal 0.427555 0.903989 0
    outer loop
      vertex -12.492 -23.3709 32
      vertex -10.1411 -24.4828 1
      vertex -12.492 -23.3709 1
    endloop
  endfacet
  facet normal -0.903989 -0.427555 0
    outer loop
      vertex 24.4828 10.1411 1
      vertex 23.3709 12.492 32
      vertex 23.3709 12.492 1
    endloop
  endfacet
  facet normal -0.903989 -0.427555 0
    outer loop
      vertex 23.3709 12.492 32
      vertex 24.4828 10.1411 1
      vertex 24.4828 10.1411 32
    endloop
  endfacet
  facet normal -0.857728 -0.514103 0
    outer loop
      vertex 23.3709 12.492 1
      vertex 22.0339 14.7226 32
      vertex 22.0339 14.7226 1
    endloop
  endfacet
  facet normal -0.857728 -0.514103 0
    outer loop
      vertex 22.0339 14.7226 32
      vertex 23.3709 12.492 1
      vertex 23.3709 12.492 32
    endloop
  endfacet
  facet normal -0.427555 -0.903989 0
    outer loop
      vertex 10.1411 24.4828 1
      vertex 12.492 23.3709 32
      vertex 10.1411 24.4828 32
    endloop
  endfacet
  facet normal -0.427555 -0.903989 -0
    outer loop
      vertex 12.492 23.3709 32
      vertex 10.1411 24.4828 1
      vertex 12.492 23.3709 1
    endloop
  endfacet
  facet normal 0.740951 -0.671559 0
    outer loop
      vertex -20.4848 16.8114 32
      vertex -18.7383 18.7383 1
      vertex -18.7383 18.7383 32
    endloop
  endfacet
  facet normal 0.740951 -0.671559 0
    outer loop
      vertex -18.7383 18.7383 1
      vertex -20.4848 16.8114 32
      vertex -20.4848 16.8114 1
    endloop
  endfacet
  facet normal 0.14673 -0.989177 0
    outer loop
      vertex -5.16989 25.9908 1
      vertex -2.59745 26.3724 32
      vertex -5.16989 25.9908 32
    endloop
  endfacet
  facet normal 0.14673 -0.989177 0
    outer loop
      vertex -2.59745 26.3724 32
      vertex -5.16989 25.9908 1
      vertex -2.59745 26.3724 1
    endloop
  endfacet
  facet normal -0.803207 0.595699 0
    outer loop
      vertex 20.4848 -16.8114 1
      vertex 22.0339 -14.7226 32
      vertex 22.0339 -14.7226 1
    endloop
  endfacet
  facet normal -0.803207 0.595699 0
    outer loop
      vertex 22.0339 -14.7226 32
      vertex 20.4848 -16.8114 1
      vertex 20.4848 -16.8114 32
    endloop
  endfacet
  facet normal -0.941544 0.336889 0
    outer loop
      vertex 24.4828 -10.1411 1
      vertex 25.3589 -7.69254 32
      vertex 25.3589 -7.69254 1
    endloop
  endfacet
  facet normal -0.941544 0.336889 0
    outer loop
      vertex 25.3589 -7.69254 32
      vertex 24.4828 -10.1411 1
      vertex 24.4828 -10.1411 32
    endloop
  endfacet
  facet normal 0.14673 0.989177 -0
    outer loop
      vertex -2.59745 -26.3724 1
      vertex -5.16989 -25.9908 32
      vertex -2.59745 -26.3724 32
    endloop
  endfacet
  facet normal 0.14673 0.989177 0
    outer loop
      vertex -5.16989 -25.9908 32
      vertex -2.59745 -26.3724 1
      vertex -5.16989 -25.9908 1
    endloop
  endfacet
  facet normal 0.671559 0.740951 -0
    outer loop
      vertex -16.8114 -20.4848 1
      vertex -18.7383 -18.7383 32
      vertex -16.8114 -20.4848 32
    endloop
  endfacet
  facet normal 0.671559 0.740951 0
    outer loop
      vertex -18.7383 -18.7383 32
      vertex -16.8114 -20.4848 1
      vertex -18.7383 -18.7383 1
    endloop
  endfacet
  facet normal 0.989177 0.14673 0
    outer loop
      vertex -25.9908 -5.16989 32
      vertex -26.3724 -2.59745 1
      vertex -26.3724 -2.59745 32
    endloop
  endfacet
  facet normal 0.989177 0.14673 0
    outer loop
      vertex -26.3724 -2.59745 1
      vertex -25.9908 -5.16989 32
      vertex -25.9908 -5.16989 1
    endloop
  endfacet
  facet normal -0.989177 -0.14673 0
    outer loop
      vertex 26.3724 2.59745 1
      vertex 25.9908 5.16989 32
      vertex 25.9908 5.16989 1
    endloop
  endfacet
  facet normal -0.989177 -0.14673 0
    outer loop
      vertex 25.9908 5.16989 32
      vertex 26.3724 2.59745 1
      vertex 26.3724 2.59745 32
    endloop
  endfacet
  facet normal -0.970031 -0.242981 0
    outer loop
      vertex 25.9908 5.16989 1
      vertex 25.3589 7.69254 32
      vertex 25.3589 7.69254 1
    endloop
  endfacet
  facet normal -0.970031 -0.242981 0
    outer loop
      vertex 25.3589 7.69254 32
      vertex 25.9908 5.16989 1
      vertex 25.9908 5.16989 32
    endloop
  endfacet
  facet normal -0.941544 -0.336889 0
    outer loop
      vertex 25.3589 7.69254 1
      vertex 24.4828 10.1411 32
      vertex 24.4828 10.1411 1
    endloop
  endfacet
  facet normal -0.941544 -0.336889 0
    outer loop
      vertex 24.4828 10.1411 32
      vertex 25.3589 7.69254 1
      vertex 25.3589 7.69254 32
    endloop
  endfacet
  facet normal -0.740951 -0.671559 0
    outer loop
      vertex 20.4848 16.8114 1
      vertex 18.7383 18.7383 32
      vertex 18.7383 18.7383 1
    endloop
  endfacet
  facet normal -0.740951 -0.671559 0
    outer loop
      vertex 18.7383 18.7383 32
      vertex 20.4848 16.8114 1
      vertex 20.4848 16.8114 32
    endloop
  endfacet
  facet normal -0.803207 -0.595699 0
    outer loop
      vertex 22.0339 14.7226 1
      vertex 20.4848 16.8114 32
      vertex 20.4848 16.8114 1
    endloop
  endfacet
  facet normal -0.803207 -0.595699 0
    outer loop
      vertex 20.4848 16.8114 32
      vertex 22.0339 14.7226 1
      vertex 22.0339 14.7226 32
    endloop
  endfacet
  facet normal -0.671559 -0.740951 0
    outer loop
      vertex 16.8114 20.4848 1
      vertex 18.7383 18.7383 32
      vertex 16.8114 20.4848 32
    endloop
  endfacet
  facet normal -0.671559 -0.740951 -0
    outer loop
      vertex 18.7383 18.7383 32
      vertex 16.8114 20.4848 1
      vertex 18.7383 18.7383 1
    endloop
  endfacet
  facet normal -0.0490679 -0.998795 0
    outer loop
      vertex 0 26.5 1
      vertex 2.59745 26.3724 32
      vertex 0 26.5 32
    endloop
  endfacet
  facet normal -0.0490679 -0.998795 -0
    outer loop
      vertex 2.59745 26.3724 32
      vertex 0 26.5 1
      vertex 2.59745 26.3724 1
    endloop
  endfacet
  facet normal -0.514103 -0.857728 0
    outer loop
      vertex 12.492 23.3709 1
      vertex 14.7226 22.0339 32
      vertex 12.492 23.3709 32
    endloop
  endfacet
  facet normal -0.514103 -0.857728 -0
    outer loop
      vertex 14.7226 22.0339 32
      vertex 12.492 23.3709 1
      vertex 14.7226 22.0339 1
    endloop
  endfacet
  facet normal -0.336889 -0.941544 0
    outer loop
      vertex 7.69254 25.3589 1
      vertex 10.1411 24.4828 32
      vertex 7.69254 25.3589 32
    endloop
  endfacet
  facet normal -0.336889 -0.941544 -0
    outer loop
      vertex 10.1411 24.4828 32
      vertex 7.69254 25.3589 1
      vertex 10.1411 24.4828 1
    endloop
  endfacet
  facet normal -0.242981 -0.970031 0
    outer loop
      vertex 5.16989 25.9908 1
      vertex 7.69254 25.3589 32
      vertex 5.16989 25.9908 32
    endloop
  endfacet
  facet normal -0.242981 -0.970031 -0
    outer loop
      vertex 7.69254 25.3589 32
      vertex 5.16989 25.9908 1
      vertex 7.69254 25.3589 1
    endloop
  endfacet
  facet normal 0.998795 -0.0490679 0
    outer loop
      vertex -26.5 0 32
      vertex -26.3724 2.59745 1
      vertex -26.3724 2.59745 32
    endloop
  endfacet
  facet normal 0.998795 -0.0490679 0
    outer loop
      vertex -26.3724 2.59745 1
      vertex -26.5 0 32
      vertex -26.5 0 1
    endloop
  endfacet
  facet normal 0.941544 -0.336889 0
    outer loop
      vertex -25.3589 7.69254 32
      vertex -24.4828 10.1411 1
      vertex -24.4828 10.1411 32
    endloop
  endfacet
  facet normal 0.941544 -0.336889 0
    outer loop
      vertex -24.4828 10.1411 1
      vertex -25.3589 7.69254 32
      vertex -25.3589 7.69254 1
    endloop
  endfacet
  facet normal 0.970031 -0.242981 0
    outer loop
      vertex -25.9908 5.16989 32
      vertex -25.3589 7.69254 1
      vertex -25.3589 7.69254 32
    endloop
  endfacet
  facet normal 0.970031 -0.242981 0
    outer loop
      vertex -25.3589 7.69254 1
      vertex -25.9908 5.16989 32
      vertex -25.9908 5.16989 1
    endloop
  endfacet
  facet normal 0.857728 -0.514103 0
    outer loop
      vertex -23.3709 12.492 32
      vertex -22.0339 14.7226 1
      vertex -22.0339 14.7226 32
    endloop
  endfacet
  facet normal 0.857728 -0.514103 0
    outer loop
      vertex -22.0339 14.7226 1
      vertex -23.3709 12.492 32
      vertex -23.3709 12.492 1
    endloop
  endfacet
  facet normal 0.803207 -0.595699 0
    outer loop
      vertex -22.0339 14.7226 32
      vertex -20.4848 16.8114 1
      vertex -20.4848 16.8114 32
    endloop
  endfacet
  facet normal 0.803207 -0.595699 0
    outer loop
      vertex -20.4848 16.8114 1
      vertex -22.0339 14.7226 32
      vertex -22.0339 14.7226 1
    endloop
  endfacet
  facet normal 0.242981 -0.970031 0
    outer loop
      vertex -7.69254 25.3589 1
      vertex -5.16989 25.9908 32
      vertex -7.69254 25.3589 32
    endloop
  endfacet
  facet normal 0.242981 -0.970031 0
    outer loop
      vertex -5.16989 25.9908 32
      vertex -7.69254 25.3589 1
      vertex -5.16989 25.9908 1
    endloop
  endfacet
  facet normal 0.0490679 -0.998795 0
    outer loop
      vertex -2.59745 26.3724 1
      vertex 0 26.5 32
      vertex -2.59745 26.3724 32
    endloop
  endfacet
  facet normal 0.0490679 -0.998795 0
    outer loop
      vertex 0 26.5 32
      vertex -2.59745 26.3724 1
      vertex 0 26.5 1
    endloop
  endfacet
  facet normal 0.514103 -0.857728 0
    outer loop
      vertex -14.7226 22.0339 1
      vertex -12.492 23.3709 32
      vertex -14.7226 22.0339 32
    endloop
  endfacet
  facet normal 0.514103 -0.857728 0
    outer loop
      vertex -12.492 23.3709 32
      vertex -14.7226 22.0339 1
      vertex -12.492 23.3709 1
    endloop
  endfacet
  facet normal 0.595699 -0.803207 0
    outer loop
      vertex -16.8114 20.4848 1
      vertex -14.7226 22.0339 32
      vertex -16.8114 20.4848 32
    endloop
  endfacet
  facet normal 0.595699 -0.803207 0
    outer loop
      vertex -14.7226 22.0339 32
      vertex -16.8114 20.4848 1
      vertex -14.7226 22.0339 1
    endloop
  endfacet
  facet normal 0.427555 -0.903989 0
    outer loop
      vertex -12.492 23.3709 1
      vertex -10.1411 24.4828 32
      vertex -12.492 23.3709 32
    endloop
  endfacet
  facet normal 0.427555 -0.903989 0
    outer loop
      vertex -10.1411 24.4828 32
      vertex -12.492 23.3709 1
      vertex -10.1411 24.4828 1
    endloop
  endfacet
  facet normal 0.671559 -0.740951 0
    outer loop
      vertex -18.7383 18.7383 1
      vertex -16.8114 20.4848 32
      vertex -18.7383 18.7383 32
    endloop
  endfacet
  facet normal 0.671559 -0.740951 0
    outer loop
      vertex -16.8114 20.4848 32
      vertex -18.7383 18.7383 1
      vertex -16.8114 20.4848 1
    endloop
  endfacet
  facet normal -0.998795 -0.0490679 0
    outer loop
      vertex 26.5 0 1
      vertex 26.3724 2.59745 32
      vertex 26.3724 2.59745 1
    endloop
  endfacet
  facet normal -0.998795 -0.0490679 0
    outer loop
      vertex 26.3724 2.59745 32
      vertex 26.5 0 1
      vertex 26.5 0 32
    endloop
  endfacet
  facet normal -0.0490679 0.998795 0
    outer loop
      vertex 2.59745 -26.3724 1
      vertex 0 -26.5 32
      vertex 2.59745 -26.3724 32
    endloop
  endfacet
  facet normal -0.0490679 0.998795 0
    outer loop
      vertex 0 -26.5 32
      vertex 2.59745 -26.3724 1
      vertex 0 -26.5 1
    endloop
  endfacet
  facet normal -0.14673 0.989177 0
    outer loop
      vertex 5.16989 -25.9908 1
      vertex 2.59745 -26.3724 32
      vertex 5.16989 -25.9908 32
    endloop
  endfacet
  facet normal -0.14673 0.989177 0
    outer loop
      vertex 2.59745 -26.3724 32
      vertex 5.16989 -25.9908 1
      vertex 2.59745 -26.3724 1
    endloop
  endfacet
  facet normal -0.242981 0.970031 0
    outer loop
      vertex 7.69254 -25.3589 1
      vertex 5.16989 -25.9908 32
      vertex 7.69254 -25.3589 32
    endloop
  endfacet
  facet normal -0.242981 0.970031 0
    outer loop
      vertex 5.16989 -25.9908 32
      vertex 7.69254 -25.3589 1
      vertex 5.16989 -25.9908 1
    endloop
  endfacet
  facet normal -0.671559 0.740951 0
    outer loop
      vertex 18.7383 -18.7383 1
      vertex 16.8114 -20.4848 32
      vertex 18.7383 -18.7383 32
    endloop
  endfacet
  facet normal -0.671559 0.740951 0
    outer loop
      vertex 16.8114 -20.4848 32
      vertex 18.7383 -18.7383 1
      vertex 16.8114 -20.4848 1
    endloop
  endfacet
  facet normal 0.0490679 0.998795 -0
    outer loop
      vertex 0 -26.5 1
      vertex -2.59745 -26.3724 32
      vertex 0 -26.5 32
    endloop
  endfacet
  facet normal 0.0490679 0.998795 0
    outer loop
      vertex -2.59745 -26.3724 32
      vertex 0 -26.5 1
      vertex -2.59745 -26.3724 1
    endloop
  endfacet
  facet normal 0.336889 0.941544 -0
    outer loop
      vertex -7.69254 -25.3589 1
      vertex -10.1411 -24.4828 32
      vertex -7.69254 -25.3589 32
    endloop
  endfacet
  facet normal 0.336889 0.941544 0
    outer loop
      vertex -10.1411 -24.4828 32
      vertex -7.69254 -25.3589 1
      vertex -10.1411 -24.4828 1
    endloop
  endfacet
  facet normal 0.514103 0.857728 -0
    outer loop
      vertex -12.492 -23.3709 1
      vertex -14.7226 -22.0339 32
      vertex -12.492 -23.3709 32
    endloop
  endfacet
  facet normal 0.514103 0.857728 0
    outer loop
      vertex -14.7226 -22.0339 32
      vertex -12.492 -23.3709 1
      vertex -14.7226 -22.0339 1
    endloop
  endfacet
  facet normal 0.970031 0.242981 0
    outer loop
      vertex -25.3589 -7.69254 32
      vertex -25.9908 -5.16989 1
      vertex -25.9908 -5.16989 32
    endloop
  endfacet
  facet normal 0.970031 0.242981 0
    outer loop
      vertex -25.9908 -5.16989 1
      vertex -25.3589 -7.69254 32
      vertex -25.3589 -7.69254 1
    endloop
  endfacet
  facet normal 0.998795 0.0490679 0
    outer loop
      vertex -26.3724 -2.59745 32
      vertex -26.5 0 1
      vertex -26.5 0 32
    endloop
  endfacet
  facet normal 0.998795 0.0490679 0
    outer loop
      vertex -26.5 0 1
      vertex -26.3724 -2.59745 32
      vertex -26.3724 -2.59745 1
    endloop
  endfacet
  facet normal 0.803207 0.595699 0
    outer loop
      vertex -20.4848 -16.8114 32
      vertex -22.0339 -14.7226 1
      vertex -22.0339 -14.7226 32
    endloop
  endfacet
  facet normal 0.803207 0.595699 0
    outer loop
      vertex -22.0339 -14.7226 1
      vertex -20.4848 -16.8114 32
      vertex -20.4848 -16.8114 1
    endloop
  endfacet
  facet normal 0.903989 0.427555 0
    outer loop
      vertex -23.3709 -12.492 32
      vertex -24.4828 -10.1411 1
      vertex -24.4828 -10.1411 32
    endloop
  endfacet
  facet normal 0.903989 0.427555 0
    outer loop
      vertex -24.4828 -10.1411 1
      vertex -23.3709 -12.492 32
      vertex -23.3709 -12.492 1
    endloop
  endfacet
  facet normal 0.740951 0.671559 0
    outer loop
      vertex -18.7383 -18.7383 32
      vertex -20.4848 -16.8114 1
      vertex -20.4848 -16.8114 32
    endloop
  endfacet
  facet normal 0.740951 0.671559 0
    outer loop
      vertex -20.4848 -16.8114 1
      vertex -18.7383 -18.7383 32
      vertex -18.7383 -18.7383 1
    endloop
  endfacet
  facet normal -0.14673 -0.989177 0
    outer loop
      vertex 2.59745 26.3724 1
      vertex 5.16989 25.9908 32
      vertex 2.59745 26.3724 32
    endloop
  endfacet
  facet normal -0.14673 -0.989177 -0
    outer loop
      vertex 5.16989 25.9908 32
      vertex 2.59745 26.3724 1
      vertex 5.16989 25.9908 1
    endloop
  endfacet
  facet normal 0.989177 -0.14673 0
    outer loop
      vertex -26.3724 2.59745 32
      vertex -25.9908 5.16989 1
      vertex -25.9908 5.16989 32
    endloop
  endfacet
  facet normal 0.989177 -0.14673 0
    outer loop
      vertex -25.9908 5.16989 1
      vertex -26.3724 2.59745 32
      vertex -26.3724 2.59745 1
    endloop
  endfacet
  facet normal -0.989177 0.14673 0
    outer loop
      vertex 25.9908 -5.16989 1
      vertex 26.3724 -2.59745 32
      vertex 26.3724 -2.59745 1
    endloop
  endfacet
  facet normal -0.989177 0.14673 0
    outer loop
      vertex 26.3724 -2.59745 32
      vertex 25.9908 -5.16989 1
      vertex 25.9908 -5.16989 32
    endloop
  endfacet
  facet normal -0.903989 0.427555 0
    outer loop
      vertex 23.3709 -12.492 1
      vertex 24.4828 -10.1411 32
      vertex 24.4828 -10.1411 1
    endloop
  endfacet
  facet normal -0.903989 0.427555 0
    outer loop
      vertex 24.4828 -10.1411 32
      vertex 23.3709 -12.492 1
      vertex 23.3709 -12.492 32
    endloop
  endfacet
  facet normal -0.857728 0.514103 0
    outer loop
      vertex 22.0339 -14.7226 1
      vertex 23.3709 -12.492 32
      vertex 23.3709 -12.492 1
    endloop
  endfacet
  facet normal -0.857728 0.514103 0
    outer loop
      vertex 23.3709 -12.492 32
      vertex 22.0339 -14.7226 1
      vertex 22.0339 -14.7226 32
    endloop
  endfacet
  facet normal -0.336889 0.941544 0
    outer loop
      vertex 10.1411 -24.4828 1
      vertex 7.69254 -25.3589 32
      vertex 10.1411 -24.4828 32
    endloop
  endfacet
  facet normal -0.336889 0.941544 0
    outer loop
      vertex 7.69254 -25.3589 32
      vertex 10.1411 -24.4828 1
      vertex 7.69254 -25.3589 1
    endloop
  endfacet
  facet normal -0.740951 0.671559 0
    outer loop
      vertex 18.7383 -18.7383 1
      vertex 20.4848 -16.8114 32
      vertex 20.4848 -16.8114 1
    endloop
  endfacet
  facet normal -0.740951 0.671559 0
    outer loop
      vertex 20.4848 -16.8114 32
      vertex 18.7383 -18.7383 1
      vertex 18.7383 -18.7383 32
    endloop
  endfacet
  facet normal -0.595699 0.803207 0
    outer loop
      vertex 16.8114 -20.4848 1
      vertex 14.7226 -22.0339 32
      vertex 16.8114 -20.4848 32
    endloop
  endfacet
  facet normal -0.595699 0.803207 0
    outer loop
      vertex 14.7226 -22.0339 32
      vertex 16.8114 -20.4848 1
      vertex 14.7226 -22.0339 1
    endloop
  endfacet
  facet normal -0.427555 0.903989 0
    outer loop
      vertex 12.492 -23.3709 1
      vertex 10.1411 -24.4828 32
      vertex 12.492 -23.3709 32
    endloop
  endfacet
  facet normal -0.427555 0.903989 0
    outer loop
      vertex 10.1411 -24.4828 32
      vertex 12.492 -23.3709 1
      vertex 10.1411 -24.4828 1
    endloop
  endfacet
  facet normal 0.242981 0.970031 -0
    outer loop
      vertex -5.16989 -25.9908 1
      vertex -7.69254 -25.3589 32
      vertex -5.16989 -25.9908 32
    endloop
  endfacet
  facet normal 0.242981 0.970031 0
    outer loop
      vertex -7.69254 -25.3589 32
      vertex -5.16989 -25.9908 1
      vertex -7.69254 -25.3589 1
    endloop
  endfacet
  facet normal 0.595699 0.803207 -0
    outer loop
      vertex -14.7226 -22.0339 1
      vertex -16.8114 -20.4848 32
      vertex -14.7226 -22.0339 32
    endloop
  endfacet
  facet normal 0.595699 0.803207 0
    outer loop
      vertex -16.8114 -20.4848 32
      vertex -14.7226 -22.0339 1
      vertex -16.8114 -20.4848 1
    endloop
  endfacet
  facet normal 0.941544 0.336889 0
    outer loop
      vertex -24.4828 -10.1411 32
      vertex -25.3589 -7.69254 1
      vertex -25.3589 -7.69254 32
    endloop
  endfacet
  facet normal 0.941544 0.336889 0
    outer loop
      vertex -25.3589 -7.69254 1
      vertex -24.4828 -10.1411 32
      vertex -24.4828 -10.1411 1
    endloop
  endfacet
  facet normal 0.857728 0.514103 0
    outer loop
      vertex -22.0339 -14.7226 32
      vertex -23.3709 -12.492 1
      vertex -23.3709 -12.492 32
    endloop
  endfacet
  facet normal 0.857728 0.514103 0
    outer loop
      vertex -23.3709 -12.492 1
      vertex -22.0339 -14.7226 32
      vertex -22.0339 -14.7226 1
    endloop
  endfacet
  facet normal -0.970031 0.242981 0
    outer loop
      vertex 25.3589 -7.69254 1
      vertex 25.9908 -5.16989 32
      vertex 25.9908 -5.16989 1
    endloop
  endfacet
  facet normal -0.970031 0.242981 0
    outer loop
      vertex 25.9908 -5.16989 32
      vertex 25.3589 -7.69254 1
      vertex 25.3589 -7.69254 32
    endloop
  endfacet
  facet normal -0.514103 0.857728 0
    outer loop
      vertex 14.7226 -22.0339 1
      vertex 12.492 -23.3709 32
      vertex 14.7226 -22.0339 32
    endloop
  endfacet
  facet normal -0.514103 0.857728 0
    outer loop
      vertex 12.492 -23.3709 32
      vertex 14.7226 -22.0339 1
      vertex 12.492 -23.3709 1
    endloop
  endfacet
  facet normal 0 0 1
    outer loop
      vertex 15 12.5 1
      vertex 26.5 0 1
      vertex 26.3724 2.59745 1
    endloop
  endfacet
  facet normal 0 0 1
    outer loop
      vertex 15 12.5 1
      vertex 26.3724 2.59745 1
      vertex 25.9908 5.16989 1
    endloop
  endfacet
  facet normal 0 0 1
    outer loop
      vertex 15 -12.5 1
      vertex 26.5 0 1
      vertex 15 12.5 1
    endloop
  endfacet
  facet normal 0 0 1
    outer loop
      vertex 15 12.5 1
      vertex 25.9908 5.16989 1
      vertex 25.3589 7.69254 1
    endloop
  endfacet
  facet normal 0 0 1
    outer loop
      vertex 26.5 0 1
      vertex 15 -12.5 1
      vertex 26.3724 -2.59745 1
    endloop
  endfacet
  facet normal 0 0 1
    outer loop
      vertex 15 12.5 1
      vertex 25.3589 7.69254 1
      vertex 24.4828 10.1411 1
    endloop
  endfacet
  facet normal 0 0 1
    outer loop
      vertex 26.3724 -2.59745 1
      vertex 15 -12.5 1
      vertex 25.9908 -5.16989 1
    endloop
  endfacet
  facet normal 0 0 1
    outer loop
      vertex 15 12.5 1
      vertex 24.4828 10.1411 1
      vertex 23.3709 12.492 1
    endloop
  endfacet
  facet normal 0 0 1
    outer loop
      vertex 25.9908 -5.16989 1
      vertex 15 -12.5 1
      vertex 25.3589 -7.69254 1
    endloop
  endfacet
  facet normal -0 0 1
    outer loop
      vertex 15 12.5 1
      vertex 23.3709 12.492 1
      vertex 22.0339 14.7226 1
    endloop
  endfacet
  facet normal 0 0 1
    outer loop
      vertex 25.3589 -7.69254 1
      vertex 15 -12.5 1
      vertex 24.4828 -10.1411 1
    endloop
  endfacet
  facet normal 0 0 1
    outer loop
      vertex 15 12.5 1
      vertex 22.0339 14.7226 1
      vertex 20.4848 16.8114 1
    endloop
  endfacet
  facet normal 0 0 1
    outer loop
      vertex 24.4828 -10.1411 1
      vertex 15 -12.5 1
      vertex 23.3709 -12.492 1
    endloop
  endfacet
  facet normal 0 0 1
    outer loop
      vertex 15 12.5 1
      vertex 20.4848 16.8114 1
      vertex 18.7383 18.7383 1
    endloop
  endfacet
  facet normal 0 0 1
    outer loop
      vertex 23.3709 -12.492 1
      vertex 15 -12.5 1
      vertex 22.0339 -14.7226 1
    endloop
  endfacet
  facet normal 0 0 1
    outer loop
      vertex 15 12.5 1
      vertex 18.7383 18.7383 1
      vertex 16.8114 20.4848 1
    endloop
  endfacet
  facet normal 0 0 1
    outer loop
      vertex 22.0339 -14.7226 1
      vertex 15 -12.5 1
      vertex 20.4848 -16.8114 1
    endloop
  endfacet
  facet normal 0 0 1
    outer loop
      vertex 20.4848 -16.8114 1
      vertex 15 -12.5 1
      vertex 18.7383 -18.7383 1
    endloop
  endfacet
  facet normal 0 0 1
    outer loop
      vertex 14.7226 22.0339 1
      vertex 15 12.5 1
      vertex 16.8114 20.4848 1
    endloop
  endfacet
  facet normal 0 0 1
    outer loop
      vertex 12.492 23.3709 1
      vertex 15 12.5 1
      vertex 14.7226 22.0339 1
    endloop
  endfacet
  facet normal 0 0 1
    outer loop
      vertex 10.1411 24.4828 1
      vertex 15 12.5 1
      vertex 12.492 23.3709 1
    endloop
  endfacet
  facet normal 0 0 1
    outer loop
      vertex 7.69254 25.3589 1
      vertex 15 12.5 1
      vertex 10.1411 24.4828 1
    endloop
  endfacet
  facet normal 0 0 1
    outer loop
      vertex 5.16989 25.9908 1
      vertex 15 12.5 1
      vertex 7.69254 25.3589 1
    endloop
  endfacet
  facet normal 0 0 1
    outer loop
      vertex 2.59745 26.3724 1
      vertex 15 12.5 1
      vertex 5.16989 25.9908 1
    endloop
  endfacet
  facet normal 0 0 1
    outer loop
      vertex 0 26.5 1
      vertex 15 12.5 1
      vertex 2.59745 26.3724 1
    endloop
  endfacet
  facet normal 0 0 1
    outer loop
      vertex -15 12.5 1
      vertex 0 26.5 1
      vertex -2.59745 26.3724 1
    endloop
  endfacet
  facet normal 0 0 1
    outer loop
      vertex -15 12.5 1
      vertex -2.59745 26.3724 1
      vertex -5.16989 25.9908 1
    endloop
  endfacet
  facet normal 0 0 1
    outer loop
      vertex -15 12.5 1
      vertex -5.16989 25.9908 1
      vertex -7.69254 25.3589 1
    endloop
  endfacet
  facet normal 0 0 1
    outer loop
      vertex -15 12.5 1
      vertex -7.69254 25.3589 1
      vertex -10.1411 24.4828 1
    endloop
  endfacet
  facet normal 0 0 1
    outer loop
      vertex -15 12.5 1
      vertex -10.1411 24.4828 1
      vertex -12.492 23.3709 1
    endloop
  endfacet
  facet normal 0 0 1
    outer loop
      vertex -15 12.5 1
      vertex -12.492 23.3709 1
      vertex -14.7226 22.0339 1
    endloop
  endfacet
  facet normal 0 0 1
    outer loop
      vertex 0 26.5 1
      vertex -15 12.5 1
      vertex 15 12.5 1
    endloop
  endfacet
  facet normal -0 0 1
    outer loop
      vertex -18.7383 18.7383 1
      vertex -15 12.5 1
      vertex -16.8114 20.4848 1
    endloop
  endfacet
  facet normal -0 0 1
    outer loop
      vertex -16.8114 20.4848 1
      vertex -15 12.5 1
      vertex -14.7226 22.0339 1
    endloop
  endfacet
  facet normal 0 0 1
    outer loop
      vertex 18.7383 -18.7383 1
      vertex 15 -12.5 1
      vertex 16.8114 -20.4848 1
    endloop
  endfacet
  facet normal 0 0 1
    outer loop
      vertex 15 -12.5 1
      vertex 14.7226 -22.0339 1
      vertex 16.8114 -20.4848 1
    endloop
  endfacet
  facet normal 0 0 1
    outer loop
      vertex 15 -12.5 1
      vertex 12.492 -23.3709 1
      vertex 14.7226 -22.0339 1
    endloop
  endfacet
  facet normal 0 0 1
    outer loop
      vertex 15 -12.5 1
      vertex 10.1411 -24.4828 1
      vertex 12.492 -23.3709 1
    endloop
  endfacet
  facet normal 0 0 1
    outer loop
      vertex 15 -12.5 1
      vertex 7.69254 -25.3589 1
      vertex 10.1411 -24.4828 1
    endloop
  endfacet
  facet normal 0 0 1
    outer loop
      vertex 15 -12.5 1
      vertex 5.16989 -25.9908 1
      vertex 7.69254 -25.3589 1
    endloop
  endfacet
  facet normal 0 0 1
    outer loop
      vertex 15 -12.5 1
      vertex 2.59745 -26.3724 1
      vertex 5.16989 -25.9908 1
    endloop
  endfacet
  facet normal 0 0 1
    outer loop
      vertex 15 -12.5 1
      vertex 0 -26.5 1
      vertex 2.59745 -26.3724 1
    endloop
  endfacet
  facet normal -0 0 1
    outer loop
      vertex -15 -12.5 1
      vertex 0 -26.5 1
      vertex 15 -12.5 1
    endloop
  endfacet
  facet normal 0 0 1
    outer loop
      vertex 0 -26.5 1
      vertex -15 -12.5 1
      vertex -2.59745 -26.3724 1
    endloop
  endfacet
  facet normal 0 0 1
    outer loop
      vertex -2.59745 -26.3724 1
      vertex -15 -12.5 1
      vertex -5.16989 -25.9908 1
    endloop
  endfacet
  facet normal 0 0 1
    outer loop
      vertex -5.16989 -25.9908 1
      vertex -15 -12.5 1
      vertex -7.69254 -25.3589 1
    endloop
  endfacet
  facet normal 0 0 1
    outer loop
      vertex -7.69254 -25.3589 1
      vertex -15 -12.5 1
      vertex -10.1411 -24.4828 1
    endloop
  endfacet
  facet normal 0 0 1
    outer loop
      vertex -10.1411 -24.4828 1
      vertex -15 -12.5 1
      vertex -12.492 -23.3709 1
    endloop
  endfacet
  facet normal 0 0 1
    outer loop
      vertex -12.492 -23.3709 1
      vertex -15 -12.5 1
      vertex -14.7226 -22.0339 1
    endloop
  endfacet
  facet normal -0 0 1
    outer loop
      vertex -20.4848 16.8114 1
      vertex -15 12.5 1
      vertex -18.7383 18.7383 1
    endloop
  endfacet
  facet normal 0 0 1
    outer loop
      vertex -15 -12.5 1
      vertex -16.8114 -20.4848 1
      vertex -14.7226 -22.0339 1
    endloop
  endfacet
  facet normal -0 0 1
    outer loop
      vertex -22.0339 14.7226 1
      vertex -15 12.5 1
      vertex -20.4848 16.8114 1
    endloop
  endfacet
  facet normal 0 0 1
    outer loop
      vertex -15 -12.5 1
      vertex -18.7383 -18.7383 1
      vertex -16.8114 -20.4848 1
    endloop
  endfacet
  facet normal 0 0 1
    outer loop
      vertex -23.3709 12.492 1
      vertex -15 12.5 1
      vertex -22.0339 14.7226 1
    endloop
  endfacet
  facet normal 0 0 1
    outer loop
      vertex -15 -12.5 1
      vertex -20.4848 -16.8114 1
      vertex -18.7383 -18.7383 1
    endloop
  endfacet
  facet normal 0 0 1
    outer loop
      vertex -24.4828 10.1411 1
      vertex -15 12.5 1
      vertex -23.3709 12.492 1
    endloop
  endfacet
  facet normal 0 0 1
    outer loop
      vertex -15 -12.5 1
      vertex -22.0339 -14.7226 1
      vertex -20.4848 -16.8114 1
    endloop
  endfacet
  facet normal 0 0 1
    outer loop
      vertex -25.3589 7.69254 1
      vertex -15 12.5 1
      vertex -24.4828 10.1411 1
    endloop
  endfacet
  facet normal 0 0 1
    outer loop
      vertex -15 -12.5 1
      vertex -23.3709 -12.492 1
      vertex -22.0339 -14.7226 1
    endloop
  endfacet
  facet normal 0 0 1
    outer loop
      vertex -25.9908 5.16989 1
      vertex -15 12.5 1
      vertex -25.3589 7.69254 1
    endloop
  endfacet
  facet normal 0 0 1
    outer loop
      vertex -15 -12.5 1
      vertex -24.4828 -10.1411 1
      vertex -23.3709 -12.492 1
    endloop
  endfacet
  facet normal 0 0 1
    outer loop
      vertex -26.3724 2.59745 1
      vertex -15 12.5 1
      vertex -25.9908 5.16989 1
    endloop
  endfacet
  facet normal 0 0 1
    outer loop
      vertex -15 -12.5 1
      vertex -25.3589 -7.69254 1
      vertex -24.4828 -10.1411 1
    endloop
  endfacet
  facet normal 0 0 1
    outer loop
      vertex -26.5 0 1
      vertex -15 12.5 1
      vertex -26.3724 2.59745 1
    endloop
  endfacet
  facet normal 0 0 1
    outer loop
      vertex -15 -12.5 1
      vertex -25.9908 -5.16989 1
      vertex -25.3589 -7.69254 1
    endloop
  endfacet
  facet normal 0 0 1
    outer loop
      vertex -15 12.5 1
      vertex -26.5 0 1
      vertex -15 -12.5 1
    endloop
  endfacet
  facet normal 0 0 1
    outer loop
      vertex -15 -12.5 1
      vertex -26.3724 -2.59745 1
      vertex -25.9908 -5.16989 1
    endloop
  endfacet
  facet normal 0 0 1
    outer loop
      vertex -15 -12.5 1
      vertex -26.5 0 1
      vertex -26.3724 -2.59745 1
    endloop
  endfacet
  facet normal 0 0 -1
    outer loop
      vertex 15 -12.5 -1
      vertex 27.5 0 -1
      vertex 27.3676 -2.69547 -1
    endloop
  endfacet
  facet normal 0 0 -1
    outer loop
      vertex 15 -12.5 -1
      vertex 27.3676 -2.69547 -1
      vertex 26.9716 -5.36498 -1
    endloop
  endfacet
  facet normal 0 0 -1
    outer loop
      vertex 15 12.5 -1
      vertex 27.5 0 -1
      vertex 15 -12.5 -1
    endloop
  endfacet
  facet normal 0 0 -1
    outer loop
      vertex 15 -12.5 -1
      vertex 26.9716 -5.36498 -1
      vertex 26.3159 -7.98283 -1
    endloop
  endfacet
  facet normal 0 0 -1
    outer loop
      vertex 27.5 0 -1
      vertex 15 12.5 -1
      vertex 27.3676 2.69547 -1
    endloop
  endfacet
  facet normal 0 0 -1
    outer loop
      vertex 15 -12.5 -1
      vertex 26.3159 -7.98283 -1
      vertex 25.4067 -10.5238 -1
    endloop
  endfacet
  facet normal 0 0 -1
    outer loop
      vertex 27.3676 2.69547 -1
      vertex 15 12.5 -1
      vertex 26.9716 5.36498 -1
    endloop
  endfacet
  facet normal 0 0 -1
    outer loop
      vertex 15 -12.5 -1
      vertex 25.4067 -10.5238 -1
      vertex 24.2528 -12.9634 -1
    endloop
  endfacet
  facet normal 0 0 -1
    outer loop
      vertex 26.9716 5.36498 -1
      vertex 15 12.5 -1
      vertex 26.3159 7.98283 -1
    endloop
  endfacet
  facet normal 0 0 -1
    outer loop
      vertex 15 -12.5 -1
      vertex 24.2528 -12.9634 -1
      vertex 22.8654 -15.2782 -1
    endloop
  endfacet
  facet normal 0 0 -1
    outer loop
      vertex 26.3159 7.98283 -1
      vertex 15 12.5 -1
      vertex 25.4067 10.5238 -1
    endloop
  endfacet
  facet normal 0 0 -1
    outer loop
      vertex 15 -12.5 -1
      vertex 22.8654 -15.2782 -1
      vertex 21.2578 -17.4458 -1
    endloop
  endfacet
  facet normal 0 0 -1
    outer loop
      vertex 25.4067 10.5238 -1
      vertex 15 12.5 -1
      vertex 24.2528 12.9634 -1
    endloop
  endfacet
  facet normal 0 0 -1
    outer loop
      vertex 15 -12.5 -1
      vertex 21.2578 -17.4458 -1
      vertex 19.4454 -19.4454 -1
    endloop
  endfacet
  facet normal -0 0 -1
    outer loop
      vertex 24.2528 12.9634 -1
      vertex 15 12.5 -1
      vertex 22.8654 15.2782 -1
    endloop
  endfacet
  facet normal 0 0 -1
    outer loop
      vertex 15 -12.5 -1
      vertex 19.4454 -19.4454 -1
      vertex 17.4458 -21.2578 -1
    endloop
  endfacet
  facet normal -0 0 -1
    outer loop
      vertex 22.8654 15.2782 -1
      vertex 15 12.5 -1
      vertex 21.2578 17.4458 -1
    endloop
  endfacet
  facet normal 0 0 -1
    outer loop
      vertex 15 -12.5 -1
      vertex 17.4458 -21.2578 -1
      vertex 15.2782 -22.8654 -1
    endloop
  endfacet
  facet normal -0 0 -1
    outer loop
      vertex 21.2578 17.4458 -1
      vertex 15 12.5 -1
      vertex 19.4454 19.4454 -1
    endloop
  endfacet
  facet normal -0 0 -1
    outer loop
      vertex 19.4454 19.4454 -1
      vertex 15 12.5 -1
      vertex 17.4458 21.2578 -1
    endloop
  endfacet
  facet normal 0 0 -1
    outer loop
      vertex 12.9634 -24.2528 -1
      vertex 15 -12.5 -1
      vertex 15.2782 -22.8654 -1
    endloop
  endfacet
  facet normal 0 0 -1
    outer loop
      vertex 10.5238 -25.4067 -1
      vertex 15 -12.5 -1
      vertex 12.9634 -24.2528 -1
    endloop
  endfacet
  facet normal 0 0 -1
    outer loop
      vertex 7.98283 -26.3159 -1
      vertex 15 -12.5 -1
      vertex 10.5238 -25.4067 -1
    endloop
  endfacet
  facet normal 0 0 -1
    outer loop
      vertex 5.36498 -26.9716 -1
      vertex 15 -12.5 -1
      vertex 7.98283 -26.3159 -1
    endloop
  endfacet
  facet normal 0 0 -1
    outer loop
      vertex 2.69547 -27.3676 -1
      vertex 15 -12.5 -1
      vertex 5.36498 -26.9716 -1
    endloop
  endfacet
  facet normal 0 0 -1
    outer loop
      vertex 0 -27.5 -1
      vertex 15 -12.5 -1
      vertex 2.69547 -27.3676 -1
    endloop
  endfacet
  facet normal 0 0 -1
    outer loop
      vertex -15 -12.5 -1
      vertex 0 -27.5 -1
      vertex -2.69547 -27.3676 -1
    endloop
  endfacet
  facet normal 0 0 -1
    outer loop
      vertex -15 -12.5 -1
      vertex -2.69547 -27.3676 -1
      vertex -5.36498 -26.9716 -1
    endloop
  endfacet
  facet normal 0 0 -1
    outer loop
      vertex -15 -12.5 -1
      vertex -5.36498 -26.9716 -1
      vertex -7.98283 -26.3159 -1
    endloop
  endfacet
  facet normal 0 0 -1
    outer loop
      vertex -15 -12.5 -1
      vertex -7.98283 -26.3159 -1
      vertex -10.5238 -25.4067 -1
    endloop
  endfacet
  facet normal 0 0 -1
    outer loop
      vertex -15 -12.5 -1
      vertex -10.5238 -25.4067 -1
      vertex -12.9634 -24.2528 -1
    endloop
  endfacet
  facet normal 0 0 -1
    outer loop
      vertex 0 -27.5 -1
      vertex -15 -12.5 -1
      vertex 15 -12.5 -1
    endloop
  endfacet
  facet normal 0 0 -1
    outer loop
      vertex -17.4458 -21.2578 -1
      vertex -15 -12.5 -1
      vertex -15.2782 -22.8654 -1
    endloop
  endfacet
  facet normal 0 0 -1
    outer loop
      vertex -15.2782 -22.8654 -1
      vertex -15 -12.5 -1
      vertex -12.9634 -24.2528 -1
    endloop
  endfacet
  facet normal -0 0 -1
    outer loop
      vertex 17.4458 21.2578 -1
      vertex 15 12.5 -1
      vertex 15.2782 22.8654 -1
    endloop
  endfacet
  facet normal 0 0 -1
    outer loop
      vertex 15 12.5 -1
      vertex 12.9634 24.2528 -1
      vertex 15.2782 22.8654 -1
    endloop
  endfacet
  facet normal 0 0 -1
    outer loop
      vertex 15 12.5 -1
      vertex 10.5238 25.4067 -1
      vertex 12.9634 24.2528 -1
    endloop
  endfacet
  facet normal 0 0 -1
    outer loop
      vertex 15 12.5 -1
      vertex 7.98283 26.3159 -1
      vertex 10.5238 25.4067 -1
    endloop
  endfacet
  facet normal 0 0 -1
    outer loop
      vertex 15 12.5 -1
      vertex 5.36498 26.9716 -1
      vertex 7.98283 26.3159 -1
    endloop
  endfacet
  facet normal 0 0 -1
    outer loop
      vertex 15 12.5 -1
      vertex 2.69547 27.3676 -1
      vertex 5.36498 26.9716 -1
    endloop
  endfacet
  facet normal 0 0 -1
    outer loop
      vertex 15 12.5 -1
      vertex 0 27.5 -1
      vertex 2.69547 27.3676 -1
    endloop
  endfacet
  facet normal 0 0 -1
    outer loop
      vertex -15 12.5 -1
      vertex 0 27.5 -1
      vertex 15 12.5 -1
    endloop
  endfacet
  facet normal 0 0 -1
    outer loop
      vertex 0 27.5 -1
      vertex -15 12.5 -1
      vertex -2.69547 27.3676 -1
    endloop
  endfacet
  facet normal 0 0 -1
    outer loop
      vertex -2.69547 27.3676 -1
      vertex -15 12.5 -1
      vertex -5.36498 26.9716 -1
    endloop
  endfacet
  facet normal 0 0 -1
    outer loop
      vertex -5.36498 26.9716 -1
      vertex -15 12.5 -1
      vertex -7.98283 26.3159 -1
    endloop
  endfacet
  facet normal 0 0 -1
    outer loop
      vertex -7.98283 26.3159 -1
      vertex -15 12.5 -1
      vertex -10.5238 25.4067 -1
    endloop
  endfacet
  facet normal 0 0 -1
    outer loop
      vertex -10.5238 25.4067 -1
      vertex -15 12.5 -1
      vertex -12.9634 24.2528 -1
    endloop
  endfacet
  facet normal 0 0 -1
    outer loop
      vertex -15 12.5 -1
      vertex -15.2782 22.8654 -1
      vertex -12.9634 24.2528 -1
    endloop
  endfacet
  facet normal 0 0 -1
    outer loop
      vertex -19.4454 -19.4454 -1
      vertex -15 -12.5 -1
      vertex -17.4458 -21.2578 -1
    endloop
  endfacet
  facet normal 0 0 -1
    outer loop
      vertex -21.2578 -17.4458 -1
      vertex -15 -12.5 -1
      vertex -19.4454 -19.4454 -1
    endloop
  endfacet
  facet normal 0 0 -1
    outer loop
      vertex -15 12.5 -1
      vertex -17.4458 21.2578 -1
      vertex -15.2782 22.8654 -1
    endloop
  endfacet
  facet normal 0 0 -1
    outer loop
      vertex -22.8654 -15.2782 -1
      vertex -15 -12.5 -1
      vertex -21.2578 -17.4458 -1
    endloop
  endfacet
  facet normal 0 0 -1
    outer loop
      vertex -15 12.5 -1
      vertex -19.4454 19.4454 -1
      vertex -17.4458 21.2578 -1
    endloop
  endfacet
  facet normal 0 0 -1
    outer loop
      vertex -24.2528 -12.9634 -1
      vertex -15 -12.5 -1
      vertex -22.8654 -15.2782 -1
    endloop
  endfacet
  facet normal 0 0 -1
    outer loop
      vertex -15 12.5 -1
      vertex -21.2578 17.4458 -1
      vertex -19.4454 19.4454 -1
    endloop
  endfacet
  facet normal 0 0 -1
    outer loop
      vertex -25.4067 -10.5238 -1
      vertex -15 -12.5 -1
      vertex -24.2528 -12.9634 -1
    endloop
  endfacet
  facet normal 0 0 -1
    outer loop
      vertex -15 12.5 -1
      vertex -22.8654 15.2782 -1
      vertex -21.2578 17.4458 -1
    endloop
  endfacet
  facet normal 0 0 -1
    outer loop
      vertex -26.3159 -7.98283 -1
      vertex -15 -12.5 -1
      vertex -25.4067 -10.5238 -1
    endloop
  endfacet
  facet normal 0 0 -1
    outer loop
      vertex -15 12.5 -1
      vertex -24.2528 12.9634 -1
      vertex -22.8654 15.2782 -1
    endloop
  endfacet
  facet normal 0 0 -1
    outer loop
      vertex -26.9716 -5.36498 -1
      vertex -15 -12.5 -1
      vertex -26.3159 -7.98283 -1
    endloop
  endfacet
  facet normal -0 0 -1
    outer loop
      vertex -15 12.5 -1
      vertex -25.4067 10.5238 -1
      vertex -24.2528 12.9634 -1
    endloop
  endfacet
  facet normal 0 0 -1
    outer loop
      vertex -27.3676 -2.69547 -1
      vertex -15 -12.5 -1
      vertex -26.9716 -5.36498 -1
    endloop
  endfacet
  facet normal 0 0 -1
    outer loop
      vertex -15 12.5 -1
      vertex -26.3159 7.98283 -1
      vertex -25.4067 10.5238 -1
    endloop
  endfacet
  facet normal 0 0 -1
    outer loop
      vertex -27.5 0 -1
      vertex -15 -12.5 -1
      vertex -27.3676 -2.69547 -1
    endloop
  endfacet
  facet normal 0 0 -1
    outer loop
      vertex -15 12.5 -1
      vertex -26.9716 5.36498 -1
      vertex -26.3159 7.98283 -1
    endloop
  endfacet
  facet normal 0 0 -1
    outer loop
      vertex -15 -12.5 -1
      vertex -27.5 0 -1
      vertex -15 12.5 -1
    endloop
  endfacet
  facet normal 0 0 -1
    outer loop
      vertex -15 12.5 -1
      vertex -27.3676 2.69547 -1
      vertex -26.9716 5.36498 -1
    endloop
  endfacet
  facet normal 0 0 -1
    outer loop
      vertex -15 12.5 -1
      vertex -27.5 0 -1
      vertex -27.3676 2.69547 -1
    endloop
  endfacet
  facet normal 1 -0 0
    outer loop
      vertex -15 -12.5 1
      vertex -15 12.5 -1
      vertex -15 12.5 1
    endloop
  endfacet
  facet normal 1 0 0
    outer loop
      vertex -15 12.5 -1
      vertex -15 -12.5 1
      vertex -15 -12.5 -1
    endloop
  endfacet
  facet normal -1 0 0
    outer loop
      vertex 15 -12.5 -1
      vertex 15 12.5 1
      vertex 15 12.5 -1
    endloop
  endfacet
  facet normal -1 -0 0
    outer loop
      vertex 15 12.5 1
      vertex 15 -12.5 -1
      vertex 15 -12.5 1
    endloop
  endfacet
  facet normal 0 -1 0
    outer loop
      vertex -15 12.5 -1
      vertex 15 12.5 1
      vertex -15 12.5 1
    endloop
  endfacet
  facet normal 0 -1 -0
    outer loop
      vertex 15 12.5 1
      vertex -15 12.5 -1
      vertex 15 12.5 -1
    endloop
  endfacet
  facet normal 0 1 -0
    outer loop
      vertex 15 -12.5 -1
      vertex -15 -12.5 1
      vertex 15 -12.5 1
    endloop
  endfacet
  facet normal 0 1 0
    outer loop
      vertex -15 -12.5 1
      vertex 15 -12.5 -1
      vertex -15 -12.5 -1
    endloop
  endfacet
endsolid OpenSCAD_Model
